<?xml version="1.0" standalone="no"?>
<!DOCTYPE svg PUBLIC "-//W3C//DTD SVG 1.1//EN" "//www.w3.org/Graphics/SVG/1.1/DTD/svg11.dtd" >
<svg xmlns="//www.w3.org/2000/svg">
<metadata></metadata>
<defs>
<font id="montserratbold" horiz-adv-x="1525" >
<font-face units-per-em="2048" ascent="1638" descent="-410" />
<missing-glyph horiz-adv-x="540" />
<glyph horiz-adv-x="0" />
<glyph horiz-adv-x="682" />
<glyph horiz-adv-x="0" />
<glyph horiz-adv-x="0" />
<glyph unicode="&#xd;" horiz-adv-x="681" />
<glyph unicode=" "  horiz-adv-x="540" />
<glyph unicode="&#x09;" horiz-adv-x="540" />
<glyph unicode="&#xa0;" horiz-adv-x="540" />
<glyph unicode="!" horiz-adv-x="645" d="M141 1432h363v-254l-62 -738h-241l-60 738v254zM141 164q0 76 52.5 128t128 52t128 -52t52.5 -128t-52.5 -128t-128 -52t-128 52t-52.5 128z" />
<glyph unicode="&#x22;" horiz-adv-x="886" d="M145 883v549h244v-549h-244zM498 883v549h243v-549h-243z" />
<glyph unicode="#" horiz-adv-x="1529" d="M1386 850h-206l-43 -256h235l-55 -283h-227l-54 -311h-307l53 311h-186l-53 -311h-310l54 311h-197l55 283h191l43 256h-219l55 283h211l55 331h310l-56 -331h185l55 331h311l-59 -331h215zM874 850h-186l-45 -256h186q27 164 45 256z" />
<glyph unicode="$" horiz-adv-x="1300" d="M553 -141v149q-260 41 -479 236l190 231q160 -139 289 -178v305q-215 55 -315.5 148.5t-100.5 268.5t115 288.5t301 136.5v100h217v-104q205 -29 408 -170l-168 -242q-129 92 -240 123v-295q221 -57 326.5 -153.5t105.5 -272.5t-117.5 -290.5t-314.5 -137.5v-143h-217z M874 414q0 43 -22.5 71.5t-81.5 53.5v-252q104 33 104 127zM553 1159q-88 -31 -88 -112.5t88 -124.5v237z" />
<glyph unicode="%" horiz-adv-x="1677" d="M1522 1432l-1026 -1432h-353l1028 1432h351zM1239 170q37 0 61.5 27.5t24.5 72.5t-24.5 75t-60.5 30t-60.5 -30t-24.5 -75t23.5 -72.5t60.5 -27.5zM1456 67q-86 -83 -216 -83t-216 84t-86 203.5t86 203.5t216 84t216 -84t86 -204.5t-86 -203.5zM432 1008q37 0 61.5 27.5 t24.5 72.5t-24.5 74.5t-60.5 29.5t-60.5 -29.5t-24.5 -74.5t23.5 -72.5t60.5 -27.5zM649 904q-86 -83 -216 -83t-216 84t-86 204t86 204t216 84t216 -84t86 -205t-86 -204z" />
<glyph unicode="&#x26;" horiz-adv-x="1433" d="M1012 123q-172 -139 -398.5 -139t-372 115.5t-145.5 316.5q0 225 301 399q-68 82 -98.5 144.5t-30.5 146.5q0 174 126 266t298 92t294 -89t122 -249q0 -201 -293 -372q115 -143 172 -207q51 94 78 198l240 -172q-47 -129 -115 -239l203 -201l-203 -192zM460.5 287 q59.5 -47 154 -47t202.5 90q-150 158 -258 286q-158 -98 -158 -210q0 -72 59.5 -119zM611 1191q-36 -32 -36 -86t82 -157q154 82 154 154q0 59 -37 90t-82 31t-81 -32z" />
<glyph unicode="'" horiz-adv-x="534" d="M145 883v549h244v-549h-244z" />
<glyph unicode="(" horiz-adv-x="741" d="M482 1115q-85 -253 -85 -473t85 -474t208 -428h-332q-100 141 -183 398t-83 503t83 504t183 399h332q-123 -176 -208 -429z" />
<glyph unicode=")" horiz-adv-x="741" d="M259 168q85 254 85 474t-85 473t-208 429h332q100 -141 183 -399t83 -504t-83 -503t-183 -398h-332q123 174 208 428z" />
<glyph unicode="*" horiz-adv-x="933" d="M569 915l13 -172h-230l13 172l-146 -100l-104 186l172 86l-174 87l106 182l146 -96l-13 172h230l-13 -172l146 96l106 -182l-174 -87l172 -86l-104 -186z" />
<glyph unicode="+" horiz-adv-x="1196" d="M457 223v369h-359v252h359v368h282v-368h359v-252h-359v-369h-282z" />
<glyph unicode="," horiz-adv-x="608" d="M186 25q-72 51 -71.5 133t55.5 134t133 52t134.5 -51t56.5 -120t-60 -165l-123 -211h-202z" />
<glyph unicode="-" horiz-adv-x="1003" d="M137 479v273h729v-273h-729z" />
<glyph unicode="." horiz-adv-x="589" d="M115 164q0 76 52 128t128 52t128 -52t52 -128t-52 -128t-128 -52t-128 52t-52 128z" />
<glyph unicode="/" horiz-adv-x="1257" d="M913 1649h291l-860 -1878h-289z" />
<glyph unicode="0" horiz-adv-x="1413" d="M428 723q0 -215 67.5 -346t211 -131t211 131t67.5 346t-67.5 346t-211 131t-211 -131t-67.5 -346zM262.5 185.5q-147.5 201.5 -147.5 538.5t147.5 538.5t444.5 201.5t444 -201.5t147 -538.5t-147 -538.5t-444 -201.5t-444.5 201.5z" />
<glyph unicode="1" horiz-adv-x="825" d="M63 1432h580v-1432h-307v1159h-273v273z" />
<glyph unicode="2" horiz-adv-x="1239" d="M720 873.5q54 76.5 54 148.5t-47 120t-121 48q-135 0 -256 -193l-256 152q100 156 220 235.5t305.5 79.5t325.5 -117.5t140 -320.5q0 -111 -56 -212t-208 -259l-258 -268h565v-287h-1009v238l420 430q127 129 181 205.5z" />
<glyph unicode="3" horiz-adv-x="1210" d="M154 1159v273h876v-222l-293 -333q172 -29 266.5 -145t94.5 -267q0 -225 -152.5 -353t-390.5 -128t-481 168l131 254q203 -143 362 -144q96 0 158.5 47t62.5 136.5t-71.5 141.5t-198.5 52q-68 0 -190 -39v236l274 323h-448z" />
<glyph unicode="4" horiz-adv-x="1204" d="M649 618v250h307v-250h162v-276h-162v-342h-307v342h-575v244l510 846h348l-486 -814h203z" />
<glyph unicode="5" horiz-adv-x="1220" d="M1036 1432v-277h-565v-240q63 18 145 19q207 0 356.5 -125t149.5 -337t-154.5 -350t-381.5 -138q-291 0 -486 215l168 233q18 -18 49 -45t113 -71t164 -44t145.5 49.5t63.5 145.5t-68.5 148.5t-177 52.5t-252.5 -78l-133 143v699h864z" />
<glyph unicode="6" horiz-adv-x="1290" d="M725 1190q-133 0 -206 -89t-89 -243q133 86 283 86q201 0 335 -131t134 -349t-144.5 -349t-363.5 -131q-152 0 -263.5 58t-172.5 163q-123 203 -123 508q0 197 48 345t132 234q164 172 405 172q100 0 191.5 -29.5t140.5 -60.5t109 -78l-152 -225q-12 12 -35.5 32.5 t-93 53.5t-135.5 33zM523.5 617.5q-64.5 -56.5 -64.5 -146.5t61.5 -154.5t153.5 -64.5t153.5 57.5t61.5 148.5t-55.5 153.5t-150.5 62.5t-159.5 -56.5z" />
<glyph unicode="7" horiz-adv-x="1185" d="M96 973v459h1034v-242l-579 -1190h-348l553 1157h-361v-184h-299z" />
<glyph unicode="8" horiz-adv-x="1314" d="M657 1464q213 0 354.5 -112.5t141.5 -277.5t-127 -283q178 -137 178 -361q0 -188 -151.5 -317t-395 -129t-395 129t-151.5 317q0 223 178 361q-129 121 -129 284.5t142 276t355 112.5zM657 250q84 0 156 48t72 140t-70 141.5t-158 49.5t-157.5 -49.5t-69.5 -141.5 t71.5 -140t155.5 -48zM657.5 874q77.5 0 136 49.5t58.5 122t-57.5 122t-137 49.5t-137 -49.5t-57.5 -122t58.5 -122t136 -49.5z" />
<glyph unicode="9" horiz-adv-x="1288" d="M563 258q133 0 206 89t89 243q-131 -88 -283 -88q-201 0 -335 132t-134 349t144.5 349t363.5 132q152 0 263.5 -58t175.5 -163q121 -203 121 -508q0 -197 -48.5 -345t-130.5 -234q-168 -172 -407 -172q-100 0 -192.5 29.5t-139.5 59t-109 77.5l160 225q14 -12 38 -31.5 t91.5 -52.5t126.5 -33zM765.5 829.5q63.5 55.5 63.5 145.5t-61 155.5t-153.5 65.5t-150.5 -58.5t-58 -148.5t53 -152.5t148 -62.5t158.5 55.5z" />
<glyph unicode=":" horiz-adv-x="634" d="M137 164q0 76 52.5 128t128 52t128 -52t52.5 -128t-52.5 -128t-128 -52t-128 52t-52.5 128zM137 702.5q0 75.5 52.5 128t128 52.5t128 -52.5t52.5 -128t-52.5 -128t-128 -52.5t-128 52.5t-52.5 128z" />
<glyph unicode=";" horiz-adv-x="645" d="M211 20q-74 53 -74 135.5t55.5 134.5t134.5 52t135 -51t56 -118t-59 -169l-127 -211h-201zM137 702.5q0 75.5 52.5 128t128 52.5t128 -52.5t52.5 -128t-52.5 -128t-128 -52.5t-128 52.5t-52.5 128z" />
<glyph unicode="&#x3c;" horiz-adv-x="1230" d="M84 668v280l995 469v-301l-657 -303l657 -311v-303z" />
<glyph unicode="=" horiz-adv-x="1202" d="M102 1102h998v-252h-998v252zM102 592h998v-252h-998v252z" />
<glyph unicode="&#x3e;" horiz-adv-x="1230" d="M1147 948v-280l-995 -469v303l657 311l-657 303v301z" />
<glyph unicode="?" horiz-adv-x="1073" d="M678 426h-311v154q0 84 21.5 126t90.5 113l139 144q31 37 31 95t-32.5 97t-86 39t-89 -46t-44.5 -122h-325q23 205 149.5 321.5t318 116.5t311.5 -104.5t120 -288.5q0 -82 -20.5 -122t-29 -57.5t-38 -52t-39.5 -44.5q-49 -49 -93 -92.5t-58.5 -71t-14.5 -82.5v-123z M346 164q0 76 52.5 128t128 52t128 -52t52.5 -128t-52.5 -128t-128 -52t-128 52t-52.5 128z" />
<glyph unicode="@" horiz-adv-x="1824" d="M1409 250q55 0 97 88t42 221q0 289 -165.5 478.5t-444.5 189.5t-469 -199t-190 -476.5t179 -461.5t443 -184q207 0 365 151l84 -145q-82 -72 -209 -116t-240 -44q-342 0 -572.5 228.5t-230.5 571.5t243 585.5t585 242.5t571 -233.5t229 -581.5q0 -225 -93 -361t-244 -136 q-78 0 -142.5 47t-89.5 118q-113 -145 -286 -145t-301 131t-128 333t116 340t304 138q63 0 120.5 -27.5t82.5 -54.5l27 -26v84h256v-654q0 -102 61 -102zM1039.5 729.5q-54.5 67.5 -142.5 67.5t-140 -67.5t-52 -167t52 -173.5t142 -74t142.5 71t52.5 173.5t-54.5 170z" />
<glyph unicode="A" d="M1196 0l-133 309h-600l-133 -309h-340l618 1432h310l618 -1432h-340zM764 1006l-180 -416h358z" />
<glyph unicode="B" horiz-adv-x="1411" d="M803 0h-627v1432h557q145 0 251 -35t159 -94q96 -111 96 -250q0 -168 -109 -250q-37 -29 -51 -36t-51 -24q133 -29 212 -120t79 -226q0 -150 -102 -264q-119 -133 -414 -133zM496 852h151q133 0 197.5 28.5t64.5 124t-59 126t-201 30.5h-153v-309zM496 270h219 q137 0 205.5 34t68.5 133.5t-72.5 131t-232.5 31.5h-188v-330z" />
<glyph unicode="C" horiz-adv-x="1499" d="M834 283q236 0 385 186l204 -211q-244 -274 -574.5 -274t-544.5 208.5t-214 527t218 531.5t534 213q352 0 590 -268l-199 -225q-152 188 -377 188q-180 0 -308 -117.5t-128 -317.5t121 -320.5t293 -120.5z" />
<glyph unicode="D" horiz-adv-x="1574" d="M1270 1244.5q205 -187.5 205 -521.5t-200 -528.5t-609 -194.5h-490v1432h506q383 0 588 -187.5zM1035.5 393.5q117.5 110.5 117.5 321.5t-117.5 324.5t-361.5 113.5h-178v-870h202q220 0 337.5 110.5z" />
<glyph unicode="E" horiz-adv-x="1339" d="M1208 1432v-285h-712v-295h641v-272h-641v-297h735v-283h-1055v1432h1032z" />
<glyph unicode="F" horiz-adv-x="1253" d="M1159 1432v-281h-663v-309h630v-281h-630v-561h-320v1432h983z" />
<glyph unicode="G" horiz-adv-x="1536" d="M1106 729h321v-508q-213 -238 -589 -237q-315 0 -529.5 208.5t-214.5 527t218 531.5t526.5 213t535.5 -202l-166 -240q-96 84 -177 115.5t-175 31.5q-182 0 -307 -123.5t-125 -326.5t120 -325t285.5 -122t276.5 64v393z" />
<glyph unicode="H" horiz-adv-x="1560" d="M1065 1432h319v-1432h-319v563h-569v-563h-320v1432h320v-598h569v598z" />
<glyph unicode="I" horiz-adv-x="671" d="M176 1432h320v-1432h-320v1432z" />
<glyph unicode="J" horiz-adv-x="1138" d="M229 1157v275h746v-934q0 -256 -132 -383t-339 -127q-258 0 -451 198l166 230q129 -139 270 -140q68 0 116 52.5t48 156.5v672h-424z" />
<glyph unicode="K" horiz-adv-x="1454" d="M176 1432h320v-588l540 588h396l-570 -633q74 -102 272.5 -382t297.5 -417h-373l-420 565l-143 -159v-406h-320v1432z" />
<glyph unicode="L" horiz-adv-x="1163" d="M176 0v1432h320v-1147h610v-285h-930z" />
<glyph unicode="M" horiz-adv-x="1953" d="M1458 901l-387 -782h-190l-385 782v-901h-320v1432h432l369 -787l371 787h430v-1432h-320v901z" />
<glyph unicode="N" horiz-adv-x="1673" d="M1178 1432h319v-1432h-319l-682 897v-897h-320v1432h299l703 -922v922z" />
<glyph unicode="O" horiz-adv-x="1691" d="M1149 1050.5q-123 135.5 -302 135.5t-302 -135.5t-123 -327t123 -325.5t302 -134t302 134t123 325.5t-123 327zM845.5 -14q-317.5 0 -534.5 212t-217 527t217 527t534.5 212t534.5 -212t217 -527t-217 -527t-534.5 -212z" />
<glyph unicode="P" horiz-adv-x="1386" d="M1162.5 1304q150.5 -128 150.5 -393.5t-154.5 -388.5t-472.5 -123h-190v-399h-320v1432h506q330 0 480.5 -128zM927.5 740.5q57.5 64.5 57.5 188.5t-74.5 176t-232.5 52h-182v-481h215q159 0 216.5 64.5z" />
<glyph unicode="Q" horiz-adv-x="1693" d="M1597 725q0 -223 -113.5 -401.5t-305.5 -266.5q18 -31 58 -52t83 -21t84 13t65 32q53 43 76 84l166 -199q-176 -186 -440 -186q-123 0 -242 67.5t-182 190.5q-317 0 -534.5 212t-217.5 527t217 527t534.5 212t534.5 -212t217 -527zM1149 1050.5q-123 135.5 -302 135.5 t-302 -135.5t-123 -327t123 -325.5t302 -134t302 134t123 325.5t-123 327z" />
<glyph unicode="R" horiz-adv-x="1488" d="M1337 956q0 -344 -272 -444l362 -512h-393l-317 457h-221v-457h-320v1432h543q334 0 476 -113t142 -363zM952.5 786.5q59.5 53.5 59.5 169t-61.5 158.5t-215.5 43h-239v-424h233q164 0 223.5 53.5z" />
<glyph unicode="S" horiz-adv-x="1306" d="M511 1146q-46 -38 -46 -100.5t56.5 -99.5t260 -87t316 -150.5t112.5 -293t-144 -312t-380 -119.5q-340 0 -612 252l190 233q231 -203 428 -203q88 0 138.5 38t50.5 102.5t-53.5 102.5t-211.5 77q-250 59 -365.5 154.5t-115.5 299t146.5 314t365.5 110.5q143 0 286.5 -49 t250.5 -139l-162 -234q-186 141 -385 142q-80 0 -126 -38z" />
<glyph unicode="T" horiz-adv-x="1245" d="M782 1155v-1155h-319v1155h-406v277h1131v-277h-406z" />
<glyph unicode="U" horiz-adv-x="1538" d="M770 270q135 0 214 99.5t79 271.5v791h319v-801q0 -311 -172 -478t-440 -167t-441 168t-173 477v801h319v-791q0 -172 80 -271.5t215 -99.5z" />
<glyph unicode="V" horiz-adv-x="1409" d="M705 520l364 912h346l-575 -1432h-271l-575 1432h346z" />
<glyph unicode="W" horiz-adv-x="2086" d="M623 608l254 824h333l252 -824l285 824h346l-500 -1432h-237l-314 995l-311 -995h-237l-500 1432h346z" />
<glyph unicode="X" horiz-adv-x="1423" d="M981 1432h385l-446 -691l483 -741h-389l-305 471l-303 -471h-386l482 733l-449 699h383l273 -424z" />
<glyph unicode="Y" horiz-adv-x="1265" d="M793 0h-320v565l-496 867h347l309 -533l309 533h346l-495 -867v-565z" />
<glyph unicode="Z" horiz-adv-x="1394" d="M94 0v219l750 936h-725v277h1161v-222l-748 -931h760v-279h-1198z" />
<glyph unicode="[" horiz-adv-x="765" d="M684 1550v-231h-264v-1362h264v-231h-526v1824h526z" />
<glyph unicode="\" horiz-adv-x="1171" d="M57 1550h310l745 -1550h-309z" />
<glyph unicode="]" horiz-adv-x="765" d="M82 -274v231h264v1362h-264v231h526v-1824h-526z" />
<glyph unicode="^" horiz-adv-x="989" d="M338 1579h-293l281 363h338l280 -363h-293l-157 174z" />
<glyph unicode="_" horiz-adv-x="1474" d="M137 -270v178h1200v-178h-1200z" />
<glyph unicode="`" horiz-adv-x="782" d="M680 1575h-293l-285 229l316 135z" />
<glyph unicode="a" horiz-adv-x="1216" d="M1081 0h-288v133q-119 -150 -294 -149.5t-294 101.5t-119 270t123 253t336 84h229v6q0 176 -186 176q-80 0 -169 -31.5t-151 -78.5l-137 199q217 158 496 157q201 0 327.5 -100t126.5 -318v-702zM772 420v53h-192q-184 0 -185 -115q0 -59 44 -90.5t126 -31.5t144.5 50 t62.5 134z" />
<glyph unicode="b" horiz-adv-x="1363" d="M1130.5 963.5q149.5 -156.5 149.5 -402.5t-153.5 -411.5t-349 -165.5t-324.5 161v-145h-308v1520h308v-541q127 141 327.5 141t350 -156.5zM523.5 331q74.5 -85 181 -85t186.5 85t80 218t-78 223t-186.5 90t-183 -89t-74.5 -223t74.5 -219z" />
<glyph unicode="c" horiz-adv-x="1191" d="M674 256q154 0 276 154l183 -205q-213 -221 -461 -221t-419 156.5t-171 409.5t173 411.5t411 158.5q119 0 240.5 -49t213.5 -145l-159 -209q-53 63 -130 98t-153 35q-121 0 -208 -79t-87 -219t87 -218t204 -78z" />
<glyph unicode="d" horiz-adv-x="1363" d="M237.5 149.5q-153.5 165.5 -153.5 411.5t149.5 402.5t350 156.5t327.5 -141v541h308v-1520h-308v145q-129 -162 -324.5 -161.5t-349 166zM473 331q80 -85 186.5 -85t181 85t74.5 219t-74.5 223t-183 89t-186.5 -90t-78 -223t80 -218z" />
<glyph unicode="e" horiz-adv-x="1265" d="M1100 160q-186 -176 -437 -176t-415 154.5t-164 414.5t167 413.5t394 153.5t386 -137t159 -377v-164h-803q14 -90 94 -147t181 -57q162 0 266 108zM804.5 813q-63.5 53 -154.5 53t-166.5 -55t-88.5 -149h484q-11 98 -74.5 151z" />
<glyph unicode="f" horiz-adv-x="823" d="M512 1165v-73h266v-222h-266v-870h-309v870h-129v222h129v67q0 180 109.5 285.5t272.5 105.5t296 -123l-111 -206q-68 78 -149 77q-47 0 -78 -33.5t-31 -99.5z" />
<glyph unicode="g" horiz-adv-x="1366" d="M844 782.5q-74 75.5 -182.5 75.5t-187.5 -75.5t-79 -207t77 -212t187.5 -80.5t184.5 79.5t74 212t-74 208zM961 186q-145 -162 -361.5 -161.5t-365 146.5t-148.5 391t152.5 401.5t349 156.5t325.5 -162v146h308v-961q0 -147 -51.5 -261.5t-137.5 -180.5 q-170 -135 -401 -135q-123 0 -251 40t-224 113l118 232q152 -115 321 -115t267.5 84t98.5 266z" />
<glyph unicode="h" horiz-adv-x="1308" d="M453 594v-594h-308v1520h308v-541q139 141 312 141t292 -123t119 -327v-670h-308v602q0 254 -186 254q-92 0 -160.5 -66.5t-68.5 -195.5z" />
<glyph unicode="i" horiz-adv-x="598" d="M453 0h-308v1102h308v-1102zM119 1370q0 76 52 128t128 52t128 -52t52 -128t-52 -128t-128 -52t-128 52t-52 128z" />
<glyph unicode="j" horiz-adv-x="702" d="M250 -20v1124h307v-1149q0 -180 -109.5 -284.5t-268.5 -104.5t-302 131l141 227q61 -72 138 -71q41 0 67.5 32t26.5 95zM223 1370q0 76 52.5 128t128 52t128 -52t52.5 -128t-52.5 -128t-128 -52t-128 52t-52.5 128z" />
<glyph unicode="k" horiz-adv-x="1218" d="M453 0h-308v1520h308v-781l342 365h387l-420 -447l436 -657h-364l-281 422l-100 -105v-317z" />
<glyph unicode="l" horiz-adv-x="598" d="M453 0h-308v1520h308v-1520z" />
<glyph unicode="m" horiz-adv-x="2013" d="M1157 594v-594h-309v602q0 131 -40 192.5t-129 61.5t-157.5 -66.5t-68.5 -195.5v-594h-308v1102h308v-125q127 143 290 143q104 0 189.5 -61.5t128.5 -149.5q63 100 170.5 155.5t216.5 55.5q195 0 313.5 -115.5t118.5 -334.5v-670h-309v602q0 254 -187 254 q-92 0 -159.5 -66.5t-67.5 -195.5z" />
<glyph unicode="n" horiz-adv-x="1308" d="M453 614v-614h-308v1102h308v-123q139 141 313 141t292 -123t118 -327v-670h-308v623q0 254 -186 254q-92 0 -160.5 -67t-68.5 -196z" />
<glyph unicode="o" horiz-adv-x="1329" d="M468 331q77 -85 196.5 -85t196.5 85t77 220t-77 221t-196.5 86t-196.5 -86t-77 -221t77 -220zM1081 147.5q-166 -163.5 -416.5 -163.5t-416.5 163.5t-166 403.5t166 404.5t416.5 164.5t416.5 -164.5t166 -404.5t-166 -403.5z" />
<glyph unicode="p" horiz-adv-x="1363" d="M1129.5 959.5q150.5 -160.5 150.5 -404.5t-150.5 -407.5t-352.5 -163.5t-324 161v-542h-308v1499h308v-123q141 141 333.5 141t343 -160.5zM523.5 331q74.5 -85 181 -85t186.5 85t80 218t-78 223t-186.5 90t-183 -89t-74.5 -223t74.5 -219z" />
<glyph unicode="q" horiz-adv-x="1363" d="M241.5 142.5q-157.5 158.5 -157.5 407.5t153.5 409.5t342 160.5t329.5 -141v123h310v-1499h-310v485q-131 -104 -299 -104q-211 0 -368.5 158.5zM473 331q80 -85 186.5 -85t180 85t73.5 219t-73.5 223t-182 89t-186.5 -89t-78 -223t80 -219z" />
<glyph unicode="r" horiz-adv-x="841" d="M725 831q-137 0 -204.5 -97t-67.5 -257v-477h-308v1102h308v-146q59 68 148 115t181 49l2 -289h-59z" />
<glyph unicode="s" horiz-adv-x="1064" d="M855 82q-120 -98 -304 -98q-123 0 -256 44t-240 130l135 192q172 -133 367 -133q59 0 94 23.5t35 62.5t-48 72t-139 61.5t-139.5 49t-109.5 59.5q-125 78 -125 230.5t123 248.5t317.5 96t388.5 -131l-114 -205q-143 98 -285.5 98.5t-142.5 -77.5q0 -43 45 -67.5 t149.5 -57.5t148.5 -50.5t105 -54.5q115 -70 115 -232.5t-120 -260.5z" />
<glyph unicode="t" horiz-adv-x="901" d="M512 881v-494q0 -63 33 -99t78 -36q86 0 145 78l115 -215q-143 -131 -302 -131t-268.5 104.5t-109.5 284.5v508h-129v221h129v330h309v-330h266v-221h-266z" />
<glyph unicode="u" horiz-adv-x="1310" d="M856 508v594h309v-1102h-309v145q-115 -162 -296 -161.5t-304 114t-123 336.5v668h309v-600q0 -254 187 -254q92 0 159.5 66.5t67.5 193.5z" />
<glyph unicode="v" horiz-adv-x="1200" d="M442 0l-436 1104h320l274 -694l274 694h320l-436 -1104h-316z" />
<glyph unicode="w" horiz-adv-x="1847" d="M719 0h-318l-374 1102h317l215 -666l215 666h297l215 -666l215 666h320l-375 -1102h-320l-202 600z" />
<glyph unicode="x" horiz-adv-x="1198" d="M414 1102l188 -295l195 295h360l-379 -539l393 -563h-366l-215 303l-209 -303h-354l385 561l-365 541h367z" />
<glyph unicode="y" horiz-adv-x="1208" d="M336 -434q-162 0 -305 131l139 227q78 -76 160 -76q43 0 73.5 42t30.5 89.5t-426 1122.5h328l268 -686l268 686h328l-512 -1299q-45 -113 -140 -175t-212 -62z" />
<glyph unicode="z" horiz-adv-x="1132" d="M125 848v254h889v-240l-535 -606h565v-256h-958v254l520 594h-481z" />
<glyph unicode="{" horiz-adv-x="737" d="M637 1300l-43 3q-90 0 -90 -80v-428q0 -109 -76 -160q76 -49 76 -158v-446q0 -68 133 -68v-250h-113q-307 0 -307 293v420q0 84 -47 84h-94v250h94q47 0 47 86v411q0 293 307 293h113v-250z" />
<glyph unicode="|" horiz-adv-x="565" d="M156 -299v1890h254v-1890h-254z" />
<glyph unicode="}" horiz-adv-x="737" d="M100 -37l43 -2q90 0 90 80v428q0 109 76 160q-76 49 -76 157v447q0 68 -133 67v250h113q307 0 307 -293v-419q0 -84 47 -84h95v-250h-95q-47 0 -47 -86v-412q0 -293 -307 -293h-113v250z" />
<glyph unicode="~" horiz-adv-x="1095" d="M731 848q68 0 68 88q0 20 -6 45l245 -66q-12 -170 -90 -246.5t-194 -76.5q-70 0 -200 66.5t-169 66.5t-65.5 -39t-24.5 -111l-244 74q14 164 96 247t211 83q74 0 201 -65.5t172 -65.5z" />
<glyph unicode="&#xa1;" horiz-adv-x="651" d="M508 0h-363v270l60 738h241l62 -738v-270zM145 1284q0 76 52.5 128t128 52t128 -52t52.5 -128t-52.5 -128t-128 -52t-128 52t-52.5 128z" />
<glyph unicode="&#xa2;" horiz-adv-x="1224" d="M770 -240h-197v232q-203 33 -341 182.5t-138 374.5t137.5 376.5t341.5 184.5v236h197v-234q209 -31 363 -186l-160 -209q-84 96 -203 123v-572q53 16 101.5 51t70.5 62l21 29l182 -205q-170 -178 -375 -211v-234zM444.5 726q-49.5 -71 -49.5 -174t49.5 -175t128.5 -101 v551q-79 -30 -128.5 -101z" />
<glyph unicode="&#xa3;" horiz-adv-x="1286" d="M604 1040v-223h320v-258h-320v-287h570v-272h-1047v272h156v287h-164v258h164v211q0 254 130 369.5t341 115.5q283 0 430 -258l-228 -184q-33 76 -84 119t-112.5 43t-108.5 -46.5t-47 -146.5z" />
<glyph unicode="&#xa4;" horiz-adv-x="1558" d="M291 334q-94 137 -94 314t90 315l-172 174l192 194l182 -182q133 72 291 72t289 -74l182 184l193 -194l-172 -176q90 -139 90 -312.5t-96 -314.5l178 -180l-191 -195l-190 193q-135 -70 -287.5 -70t-279.5 70l-191 -193l-190 195zM778.5 356q114.5 0 188 83t73.5 212 t-73.5 211t-188 82t-188.5 -82t-74 -211t74 -212t188.5 -83z" />
<glyph unicode="&#xa5;" horiz-adv-x="1517" d="M221 459h365v112h-365v197h234l-385 662h348l338 -584l350 584h346l-397 -662h225v-197h-360v-112h360v-197h-360v-262h-334v262h-365v197z" />
<glyph unicode="&#xa6;" horiz-adv-x="602" d="M164 838v706h274v-706h-274zM164 -47v704h274v-704h-274z" />
<glyph unicode="&#xa7;" horiz-adv-x="1273" d="M523 1233q-38 -31 -38 -83t48.5 -84t191.5 -69q246 -59 352.5 -142t106.5 -239q0 -207 -209 -292q131 -88 131 -236.5t-125 -253t-334 -104.5q-293 0 -538 223l172 207q215 -180 372.5 -180t157.5 98q0 49 -57.5 84t-240.5 88t-297 140t-114 253q0 86 50.5 163t144.5 118 q-111 78 -111 211q0 168 125 273t320 105q135 0 241.5 -37.5t223.5 -123.5l-154 -219q-172 131 -315 131q-66 0 -104 -31zM375 651q0 -78 99 -128t253 -50q78 0 131 34t53 89q0 84 -121.5 125t-220.5 41q-194 0 -194 -111z" />
<glyph unicode="&#xa8;" horiz-adv-x="1087" d="M195 1415.5q0 63.5 44 107.5t107.5 44t107.5 -44t44 -107.5t-44 -107.5t-107.5 -44t-107.5 44t-44 107.5zM590 1415.5q0 63.5 44 107.5t107.5 44t107.5 -44t44 -107.5t-44 -107.5t-107.5 -44t-107.5 44t-44 107.5z" />
<glyph unicode="&#xa9;" horiz-adv-x="1687" d="M1583 717q0 -305 -216 -523.5t-525.5 -218.5t-523.5 216.5t-214 521.5t216.5 524t523.5 219t523 -217t216 -522zM1432 716.5q0 241.5 -172.5 414t-415 172.5t-415.5 -174.5t-173 -416t170 -413.5t415.5 -172t418 174t172.5 415.5zM852 299q-172 0 -297 116.5t-125 305 t129 306.5t317.5 118t327.5 -146l-123 -153q-82 98 -207 98q-88 0 -150 -58.5t-62 -161.5t64.5 -163.5t154.5 -60.5q133 0 204 118l127 -153q-157 -166 -360 -166z" />
<glyph unicode="&#xaa;" horiz-adv-x="733" d="M592 938h-152v63q-45 -70 -133 -69.5t-145.5 47.5t-57.5 125t60.5 118t163.5 40h104v6q0 88 -78 88q-61 0 -127 -29l-20 -10l-49 90q88 57 198 57q236 0 236 -194v-332zM430 1135v30h-90q-74 0 -74 -61q0 -29 18.5 -45.5t54.5 -16.5t63.5 25t27.5 68z" />
<glyph unicode="&#xab;" horiz-adv-x="1236" d="M657 879l-241 -377l241 -379h-309l-250 379l250 377h309zM1118 879l-241 -377l241 -379h-309l-250 379l250 377h309z" />
<glyph unicode="&#xac;" horiz-adv-x="1673" d="M129 911h1370v-731h-229v490h-1141v241z" />
<glyph unicode="&#xad;" horiz-adv-x="1003" d="M137 479v273h729v-273h-729z" />
<glyph unicode="&#xae;" horiz-adv-x="1687" d="M1583 717q0 -305 -216 -523.5t-525.5 -218.5t-523.5 216.5t-214 521.5t216.5 524t523.5 219t523 -217t216 -522zM1268 309q164 170 164 409.5t-172.5 412t-415 172.5t-415.5 -174.5t-173 -416t170 -413.5t418 -172t420 178h-238l-178 256h-90v-256h-226v832h330 q197 0 281 -68t84 -217q0 -182 -166 -254zM975 771q29 26 29 82t-30 77.5t-104 21.5h-112v-207h108q80 0 109 26z" />
<glyph unicode="&#xaf;" horiz-adv-x="905" d="M795 1407v-238h-682v238h682z" />
<glyph unicode="&#xb0;" horiz-adv-x="876" d="M438.5 1462q141.5 0 241.5 -98t100 -236.5t-100 -235.5t-241.5 -97t-242 97t-100.5 235.5t100.5 236.5t242 98zM334 1011q43 -48 104.5 -48t103.5 47t42 116.5t-42 116.5t-103.5 47t-104.5 -47t-43 -115.5t43 -116.5z" />
<glyph unicode="&#xb1;" horiz-adv-x="1189" d="M453 1335h282v-295h357v-239h-357v-285h-282v285h-355v239h355v295zM98 414h994v-232h-994v232z" />
<glyph unicode="&#xb2;" horiz-adv-x="899" d="M491.5 1111q30.5 42 30.5 79t-22.5 61.5t-57.5 24.5q-68 0 -143 -121l-178 107q66 100 140.5 151t190 51t203.5 -72.5t88 -197.5q0 -66 -34.5 -127t-126.5 -158l-127 -133h313v-196h-629v157l250 258q72 74 102.5 116z" />
<glyph unicode="&#xb3;" horiz-adv-x="892" d="M156 1243v189h557v-150l-162 -186q96 -25 148.5 -95.5t52.5 -158.5q0 -137 -95.5 -217t-244 -80t-308.5 110l95 170q117 -88 219 -88q49 0 80.5 24.5t31.5 74t-44 75t-111.5 25.5t-118.5 -25v154l150 178h-250z" />
<glyph unicode="&#xb4;" horiz-adv-x="782" d="M395 1579h-293l260 363l318 -134z" />
<glyph unicode="&#xb5;" horiz-adv-x="1325" d="M162 -379v1481h309v-600q0 -254 186 -254q92 0 160 66.5t68 193.5v594h309v-1102h-309v92q-121 -109 -291 -108q-72 0 -123 14v-377h-309z" />
<glyph unicode="&#xb6;" horiz-adv-x="1458" d="M70 1122q0 180 123.5 303t377.5 123h701v-1763h-273v1509h-200v-1509h-267v928h-40q-266 0 -369 196q-53 100 -53 213z" />
<glyph unicode="&#xb7;" horiz-adv-x="610" d="M125 651q0 76 52 128t128 52t128 -52t52 -128t-52 -128t-128 -52t-128 52t-52 128z" />
<glyph unicode="&#xb8;" horiz-adv-x="575" d="M500 -260q0 -88 -73 -153.5t-183.5 -65.5t-214.5 65l77 176q45 -39 80 -38.5t54.5 18.5t19.5 46t-24.5 49.5t-58.5 21.5t-73 -19l84 160h236l-57 -104q133 -45 133 -156z" />
<glyph unicode="&#xb9;" horiz-adv-x="610" d="M82 1432h379v-867h-219v680h-160v187z" />
<glyph unicode="&#xba;" horiz-adv-x="804" d="M326.5 1085.5q29.5 -34.5 76 -34.5t76 34.5t29.5 91t-29.5 92.5t-76 36t-76 -36t-29.5 -92.5t29.5 -91zM618.5 972q-86.5 -83 -216.5 -83t-216 84t-86 203.5t86 203.5t216 84t216.5 -84t86.5 -204.5t-86.5 -203.5z" />
<glyph unicode="&#xbb;" horiz-adv-x="1236" d="M821 502l-241 377h309l250 -377l-250 -379h-309zM360 502l-241 377h309l250 -377l-250 -379h-309z" />
<glyph unicode="&#xbc;" horiz-adv-x="1751" d="M1151 1544h235l-745 -1560h-235zM74 1430h377v-865h-220v678h-157v187zM1395 537h186v-172h94v-164h-94v-201h-186v201h-367v157l301 506h225l-299 -499h140v172z" />
<glyph unicode="&#xbd;" horiz-adv-x="1798" d="M1128 1544h238l-745 -1560h-238zM74 1432h377v-867h-220v680h-157v187zM1433.5 531q30.5 42 30.5 79t-22.5 61.5t-57.5 24.5q-68 0 -143 -121l-178 107q66 100 140.5 151.5t190 51.5t204 -73t88.5 -198q0 -66 -35 -127t-127 -157l-127 -133h313v-197h-629v158l250 258 q72 73 102.5 115z" />
<glyph unicode="&#xbe;" horiz-adv-x="1845" d="M1243 1544h236l-746 -1560h-235zM131 1243v189h557v-150l-162 -186q96 -25 148.5 -95.5t52.5 -158.5q0 -137 -95 -217t-243.5 -80t-308.5 110l94 170q117 -88 219 -88q49 0 81 24.5t32 74t-44 75t-111.5 25.5t-119.5 -25v154l150 178h-250zM1491 537h186v-172h95v-164 h-95v-201h-186v201h-367v157l301 506h226l-299 -499h139v172z" />
<glyph unicode="&#xbf;" horiz-adv-x="1077" d="M399 1022h312v-154q0 -84 -21.5 -126t-91.5 -113l-139 -144q-31 -37 -31 -95t33 -97t86 -39t89 46t44 122h326q-23 -205 -150 -321.5t-318.5 -116.5t-311.5 104.5t-120 288.5q0 82 20.5 122t29 57t38 52t39.5 43q49 51 93.5 94t58.5 71t14 83v123zM731 1284 q0 -76 -52 -128t-128 -52t-128 52t-52 128t52 128t128 52t128 -52t52 -128z" />
<glyph unicode="&#xc0;" d="M1196 0l-133 309h-600l-133 -309h-340l618 1432h310l618 -1432h-340zM764 1006l-180 -416h358zM918 1575h-293l-285 229l315 135z" />
<glyph unicode="&#xc1;" d="M1196 0l-133 309h-600l-133 -309h-340l618 1432h310l618 -1432h-340zM764 1006l-180 -416h358zM899 1579h-293l260 363l318 -134z" />
<glyph unicode="&#xc2;" d="M1196 0l-133 309h-600l-133 -309h-340l618 1432h310l618 -1432h-340zM764 1006l-180 -416h358zM580 1575h-252l231 323h383l232 -323h-252l-172 166z" />
<glyph unicode="&#xc3;" d="M1196 0l-133 309h-600l-133 -309h-340l618 1432h310l618 -1432h-340zM764 1006l-180 -416h358zM633 1681q-63 0 -62 -106h-217q0 154 66.5 242t171.5 88q66 0 159 -56.5t113 -56.5q63 0 62 106h217q0 -154 -66.5 -241.5t-171.5 -87.5q-63 0 -159.5 56t-112.5 56z" />
<glyph unicode="&#xc4;" d="M1196 0l-133 309h-600l-133 -309h-340l618 1432h310l618 -1432h-340zM764 1006l-180 -416h358zM420 1734.5q0 63.5 44 107.5t107.5 44t107.5 -44t44 -107.5t-44 -107.5t-107.5 -44t-107.5 44t-44 107.5zM815 1734.5q0 63.5 44 107.5t107.5 44t107.5 -44t44 -107.5 t-44 -107.5t-107.5 -44t-107.5 44t-44 107.5z" />
<glyph unicode="&#xc5;" d="M606 1430q-61 66 -61 154.5t64.5 153t154.5 64.5t154.5 -64.5t64.5 -154.5t-65 -156l618 -1427h-340l-133 309h-600l-133 -309h-340zM764 1006l-180 -416h358zM692 1583q0 -29 21.5 -50.5t50.5 -21.5t50.5 21.5t21.5 50.5t-21.5 50.5t-50.5 21.5t-50.5 -21.5t-21.5 -50.5 z" />
<glyph unicode="&#xc6;" horiz-adv-x="2095" d="M1966 1432v-281h-715v-309h641v-269h-641v-292h738v-281h-1078v309h-405l-162 -309h-377l735 1432h1264zM911 598v504l-260 -504h260z" />
<glyph unicode="&#xc7;" horiz-adv-x="1499" d="M834 283q236 0 385 186l204 -211q-207 -233 -495 -268l-54 -99q133 -45 134 -155q0 -88 -73 -153.5t-183.5 -65.5t-214.5 65l77 176q45 -39 80 -39t54.5 18.5t19.5 46.5t-24.5 49.5t-58.5 21.5t-73 -19l84 160q-266 45 -436 244.5t-170 498.5t218 512t534 213 q352 0 590 -268l-199 -225q-152 188 -377 188q-180 0 -308 -117.5t-128 -317.5t121 -320.5t293 -120.5z" />
<glyph unicode="&#xc8;" horiz-adv-x="1339" d="M1208 1432v-285h-712v-295h641v-272h-641v-297h735v-283h-1055v1432h1032zM827 1575h-292l-285 229l315 135z" />
<glyph unicode="&#xc9;" horiz-adv-x="1339" d="M1208 1432v-285h-712v-295h641v-272h-641v-297h735v-283h-1055v1432h1032zM809 1579h-293l260 363l318 -134z" />
<glyph unicode="&#xca;" horiz-adv-x="1339" d="M1208 1432v-285h-712v-295h641v-272h-641v-297h735v-283h-1055v1432h1032zM489 1575h-251l231 323h383l231 -323h-252l-172 166z" />
<glyph unicode="&#xcb;" horiz-adv-x="1339" d="M1208 1432v-285h-712v-295h641v-272h-641v-297h735v-283h-1055v1432h1032zM348 1734.5q0 63.5 44 107.5t107.5 44t107.5 -44t44 -107.5t-44 -107.5t-107.5 -44t-107.5 44t-44 107.5zM743 1734.5q0 63.5 44 107.5t107.5 44t108 -44t44.5 -107.5t-44.5 -107.5t-108 -44 t-107.5 44t-44 107.5z" />
<glyph unicode="&#xcc;" horiz-adv-x="671" d="M176 1432h320v-1432h-320v1432zM502 1575h-293l-285 229l316 135z" />
<glyph unicode="&#xcd;" horiz-adv-x="671" d="M176 1432h320v-1432h-320v1432zM483 1579h-293l261 363l317 -134z" />
<glyph unicode="&#xce;" horiz-adv-x="671" d="M176 1432h320v-1432h-320v1432zM166 1577h-252l231 324h383l232 -324h-252l-172 166z" />
<glyph unicode="&#xcf;" horiz-adv-x="671" d="M176 1432h320v-1432h-320v1432zM-14 1734.5q0 63.5 44 107.5t107.5 44t107.5 -44t44 -107.5t-44 -107.5t-107.5 -44t-107.5 44t-44 107.5zM381 1734.5q0 63.5 44 107.5t107.5 44t107.5 -44t44 -107.5t-44 -107.5t-107.5 -44t-107.5 44t-44 107.5z" />
<glyph unicode="&#xd0;" horiz-adv-x="1605" d="M53 573v273h152v586h506q383 0 587.5 -187.5t204.5 -521.5t-199.5 -528.5t-609.5 -194.5h-489v573h-152zM1064 393.5q118 110.5 118 321.5t-118 324.5t-362 113.5h-178v-307h480v-273h-480v-290h203q219 0 337 110.5z" />
<glyph unicode="&#xd1;" horiz-adv-x="1673" d="M1178 1432h319v-1432h-319l-682 897v-897h-320v1432h299l703 -922v922zM717 1679q-63 0 -62 -106h-217q0 154 66.5 242t171.5 88q66 0 159 -56.5t113 -56.5q63 0 62 106h217q0 -154 -66.5 -241.5t-171.5 -87.5q-63 0 -159.5 56t-112.5 56z" />
<glyph unicode="&#xd2;" horiz-adv-x="1691" d="M1149 1050.5q-123 135.5 -302 135.5t-302 -135.5t-123 -327t123 -325.5t302 -134t302 134t123 325.5t-123 327zM845.5 -14q-317.5 0 -534.5 212t-217 527t217 527t534.5 212t534.5 -212t217 -527t-217 -527t-534.5 -212zM1012 1575h-293l-285 229l316 135z" />
<glyph unicode="&#xd3;" horiz-adv-x="1691" d="M1149 1050.5q-123 135.5 -302 135.5t-302 -135.5t-123 -327t123 -325.5t302 -134t302 134t123 325.5t-123 327zM845.5 -14q-317.5 0 -534.5 212t-217 527t217 527t534.5 212t534.5 -212t217 -527t-217 -527t-534.5 -212zM993 1579h-293l261 363l317 -134z" />
<glyph unicode="&#xd4;" horiz-adv-x="1691" d="M1149 1050.5q-123 135.5 -302 135.5t-302 -135.5t-123 -327t123 -325.5t302 -134t302 134t123 325.5t-123 327zM845.5 -14q-317.5 0 -534.5 212t-217 527t217 527t534.5 212t534.5 -212t217 -527t-217 -527t-534.5 -212zM674 1575h-252l231 323h383l232 -323h-252 l-172 166z" />
<glyph unicode="&#xd5;" horiz-adv-x="1691" d="M1149 1050.5q-123 135.5 -302 135.5t-302 -135.5t-123 -327t123 -325.5t302 -134t302 134t123 325.5t-123 327zM845.5 -14q-317.5 0 -534.5 212t-217 527t217 527t534.5 212t534.5 -212t217 -527t-217 -527t-534.5 -212zM727 1679q-63 0 -61 -106h-217q0 154 66.5 242 t170.5 88q66 0 159 -56.5t113 -56.5q63 0 62 106h217q0 -154 -66.5 -241.5t-171.5 -87.5q-63 0 -159.5 56t-112.5 56z" />
<glyph unicode="&#xd6;" horiz-adv-x="1691" d="M1149 1050.5q-123 135.5 -302 135.5t-302 -135.5t-123 -327t123 -325.5t302 -134t302 134t123 325.5t-123 327zM845.5 -14q-317.5 0 -534.5 212t-217 527t217 527t534.5 212t534.5 -212t217 -527t-217 -527t-534.5 -212zM494 1734.5q0 63.5 44 107.5t107.5 44t107.5 -44 t44 -107.5t-44 -107.5t-107.5 -44t-107.5 44t-44 107.5zM889 1734.5q0 63.5 44 107.5t107.5 44t107.5 -44t44 -107.5t-44 -107.5t-107.5 -44t-107.5 44t-44 107.5z" />
<glyph unicode="&#xd7;" horiz-adv-x="1206" d="M604 924l326 333l176 -182l-322 -330l324 -333l-176 -183l-328 334l-325 -334l-181 183l328 333l-326 330l181 182z" />
<glyph unicode="&#xd8;" horiz-adv-x="1691" d="M1597 725q0 -315 -217 -527t-534 -212q-80 0 -162 16l-106 -231h-289l149 327q-160 98 -252 263t-92 364q0 315 217 527t535 212q98 0 205 -26l96 211h291l-148 -322q143 -100 225 -258t82 -344zM846 1186q-178 0 -301 -135.5t-123 -338t143 -335.5l367 799 q-47 10 -86 10zM1149 398q123 134 123 320.5t-115 321.5l-352 -774q12 -2 41 -2q180 0 303 134z" />
<glyph unicode="&#xd9;" horiz-adv-x="1538" d="M770 270q135 0 214 99.5t79 271.5v791h319v-801q0 -311 -172 -478t-440 -167t-441 168t-173 477v801h319v-791q0 -172 80 -271.5t215 -99.5zM932 1575h-293l-285 229l316 135z" />
<glyph unicode="&#xda;" horiz-adv-x="1538" d="M770 270q135 0 214 99.5t79 271.5v791h319v-801q0 -311 -172 -478t-440 -167t-441 168t-173 477v801h319v-791q0 -172 80 -271.5t215 -99.5zM915 1579h-292l260 363l317 -134z" />
<glyph unicode="&#xdb;" horiz-adv-x="1538" d="M770 270q135 0 214 99.5t79 271.5v791h319v-801q0 -311 -172 -478t-440 -167t-441 168t-173 477v801h319v-791q0 -172 80 -271.5t215 -99.5zM596 1575h-252l231 323h383l232 -323h-252l-172 166z" />
<glyph unicode="&#xdc;" horiz-adv-x="1538" d="M770 270q135 0 214 99.5t79 271.5v791h319v-801q0 -311 -172 -478t-440 -167t-441 168t-173 477v801h319v-791q0 -172 80 -271.5t215 -99.5zM418 1734.5q0 63.5 44 107.5t107.5 44t107.5 -44t44 -107.5t-44 -107.5t-107.5 -44t-107.5 44t-44 107.5zM813 1734.5 q0 63.5 44 107.5t107.5 44t107.5 -44t44 -107.5t-44 -107.5t-107.5 -44t-107.5 44t-44 107.5z" />
<glyph unicode="&#xdd;" horiz-adv-x="1265" d="M793 0h-320v565l-496 867h347l309 -533l309 533h346l-495 -867v-565zM739 1579h-293l261 363l317 -134z" />
<glyph unicode="&#xde;" horiz-adv-x="1402" d="M1313 754q0 -279 -163 -403t-484 -124h-170v-227h-320v1432h320v-172h166q651 0 651 -506zM919.5 570.5q65.5 66.5 65.5 188.5t-82 173t-246 51h-161v-479h194q164 0 229.5 66.5z" />
<glyph unicode="&#xdf;" horiz-adv-x="1325" d="M775.5 953.5q66.5 62.5 66.5 139t-39 131t-123 54.5q-119 0 -168 -84t-49 -246v-948h-320v922q0 201 41 315q16 51 55.5 114.5t92.5 102.5q123 96 325 96q117 0 208 -29.5t144.5 -73.5t88.5 -104q57 -104 57 -223q0 -190 -158 -319q121 -39 181.5 -140.5t60.5 -226.5 q0 -199 -138 -316.5t-396 -117.5h-127v258h90q252 0 252 176q0 195 -236 195q-43 0 -113 -6v247q138 21 204.5 83.5z" />
<glyph unicode="&#xe0;" horiz-adv-x="1216" d="M1081 0h-288v133q-119 -150 -294 -149.5t-294 101.5t-119 270t123 253t336 84h229v6q0 176 -186 176q-80 0 -169 -31.5t-151 -78.5l-137 199q217 158 496 157q201 0 327.5 -100t126.5 -318v-702zM772 420v53h-192q-184 0 -185 -115q0 -59 44 -90.5t126 -31.5t144.5 50 t62.5 134zM844 1251h-293l-285 230l316 135z" />
<glyph unicode="&#xe1;" horiz-adv-x="1216" d="M1081 0h-288v133q-119 -150 -294 -149.5t-294 101.5t-119 270t123 253t336 84h229v6q0 176 -186 176q-80 0 -169 -31.5t-151 -78.5l-137 199q217 158 496 157q201 0 327.5 -100t126.5 -318v-702zM772 420v53h-192q-184 0 -185 -115q0 -59 44 -90.5t126 -31.5t144.5 50 t62.5 134zM713 1251h-293l260 363l317 -133z" />
<glyph unicode="&#xe2;" horiz-adv-x="1216" d="M1081 0h-288v133q-119 -150 -294 -149.5t-294 101.5t-119 270t123 253t336 84h229v6q0 176 -186 176q-80 0 -169 -31.5t-151 -78.5l-137 199q217 158 496 157q201 0 327.5 -100t126.5 -318v-702zM772 420v53h-192q-184 0 -185 -115q0 -59 44 -90.5t126 -31.5t144.5 50 t62.5 134zM444 1251h-251l231 324h383l231 -324h-252l-172 166z" />
<glyph unicode="&#xe3;" horiz-adv-x="1216" d="M1081 0h-288v133q-119 -150 -294 -149.5t-294 101.5t-119 270t123 253t336 84h229v6q0 176 -186 176q-80 0 -169 -31.5t-151 -78.5l-137 199q217 158 496 157q201 0 327.5 -100t126.5 -318v-702zM772 420v53h-192q-184 0 -185 -115q0 -59 44 -90.5t126 -31.5t144.5 50 t62.5 134zM477 1358q-63 0 -61 -107h-217q0 154 66.5 242t170.5 88q66 0 159 -56.5t114 -56.5q63 0 61 107h217q0 -154 -66.5 -242t-170.5 -88q-63 0 -160 56.5t-113 56.5z" />
<glyph unicode="&#xe4;" horiz-adv-x="1216" d="M1081 0h-288v133q-119 -150 -294 -149.5t-294 101.5t-119 270t123 253t336 84h229v6q0 176 -186 176q-80 0 -169 -31.5t-151 -78.5l-137 199q217 158 496 157q201 0 327.5 -100t126.5 -318v-702zM772 420v53h-192q-184 0 -185 -115q0 -59 44 -90.5t126 -31.5t144.5 50 t62.5 134zM266 1415.5q0 63.5 44 107.5t107.5 44t107.5 -44t44 -107.5t-44 -107.5t-107.5 -44t-107.5 44t-44 107.5zM662 1415.5q0 63.5 44 107.5t107.5 44t107.5 -44t44 -107.5t-44 -107.5t-107.5 -44t-107.5 44t-44 107.5z" />
<glyph unicode="&#xe5;" horiz-adv-x="1216" d="M1081 0h-288v133q-119 -150 -294 -149.5t-294 101.5t-119 270t123 253t336 84h229v6q0 176 -186 176q-80 0 -169 -31.5t-151 -78.5l-137 199q217 158 496 157q201 0 327.5 -100t126.5 -318v-702zM772 420v53h-192q-184 0 -185 -115q0 -59 44 -90.5t126 -31.5t144.5 50 t62.5 134zM408 1440q0 90 64.5 154.5t154.5 64.5t154.5 -64.5t64.5 -154.5t-64.5 -154.5t-154.5 -64.5t-154.5 64.5t-64.5 154.5zM555 1439.5q0 -28.5 21.5 -50t50 -21.5t50 21.5t21.5 50t-21.5 50t-50 21.5t-50 -21.5t-21.5 -50z" />
<glyph unicode="&#xe6;" horiz-adv-x="1916" d="M1833 449h-756v-11q16 -92 86 -146t160 -54q145 0 270 153l181 -201q-197 -207 -467 -206q-236 0 -387 155q-158 -156 -404 -155q-180 0 -307 102t-127 264q0 334 459 334h229v14q0 172 -178 172q-127 0 -307 -127l-138 199q221 178 460 178t360 -114q143 115 355 114.5 t361.5 -136.5t149.5 -378v-157zM768 420v29h-193q-90 0 -137 -16.5t-47 -75t44 -90t126 -31.5t144.5 50t62.5 134zM1450 819q-55 47 -136 47t-147.5 -49t-85.5 -133h439q-15 88 -70 135z" />
<glyph unicode="&#xe7;" horiz-adv-x="1193" d="M676 256q154 0 276 154l183 -205q-166 -172 -365 -211l-55 -103q133 -45 133 -155q0 -88 -73 -153.5t-183.5 -65.5t-214.5 65l78 176q45 -39 79.5 -39t54 18.5t19.5 46.5t-24.5 49.5t-58 21.5t-72.5 -19l84 160q-195 41 -324 188.5t-129 364.5q0 254 173 412.5t411 158.5 q119 0 240.5 -49t213.5 -145l-159 -209q-53 63 -130 98t-153 35q-121 0 -208 -79t-87 -219t87 -218t204 -78z" />
<glyph unicode="&#xe8;" horiz-adv-x="1265" d="M1100 160q-186 -176 -437 -176t-415 154.5t-164 414.5t167 413.5t394 153.5t386 -137t159 -377v-164h-803q14 -90 94 -147t181 -57q162 0 266 108zM804.5 813q-63.5 53 -154.5 53t-166.5 -55t-88.5 -149h484q-11 98 -74.5 151zM829 1251h-292l-285 230l315 135z" />
<glyph unicode="&#xe9;" horiz-adv-x="1265" d="M1100 160q-186 -176 -437 -176t-415 154.5t-164 414.5t167 413.5t394 153.5t386 -137t159 -377v-164h-803q14 -90 94 -147t181 -57q162 0 266 108zM804.5 813q-63.5 53 -154.5 53t-166.5 -55t-88.5 -149h484q-11 98 -74.5 151zM739 1251h-293l261 363l317 -133z" />
<glyph unicode="&#xea;" horiz-adv-x="1265" d="M1100 160q-186 -176 -437 -176t-415 154.5t-164 414.5t167 413.5t394 153.5t386 -137t159 -377v-164h-803q14 -90 94 -147t181 -57q162 0 266 108zM804.5 813q-63.5 53 -154.5 53t-166.5 -55t-88.5 -149h484q-11 98 -74.5 151zM461 1251h-252l231 324h383l232 -324h-252 l-172 166z" />
<glyph unicode="&#xeb;" horiz-adv-x="1265" d="M1100 160q-186 -176 -437 -176t-415 154.5t-164 414.5t167 413.5t394 153.5t386 -137t159 -377v-164h-803q14 -90 94 -147t181 -57q162 0 266 108zM804.5 813q-63.5 53 -154.5 53t-166.5 -55t-88.5 -149h484q-11 98 -74.5 151zM297 1415.5q0 63.5 44 107.5t107.5 44 t107.5 -44t44 -107.5t-44 -107.5t-107.5 -44t-107.5 44t-44 107.5zM692 1415.5q0 63.5 44 107.5t107.5 44t107.5 -44t44 -107.5t-44 -107.5t-107.5 -44t-107.5 44t-44 107.5z" />
<glyph unicode="&#xec;" horiz-adv-x="598" d="M145 1102h308v-1102h-308v1102zM457 1251h-293l-285 230l316 135z" />
<glyph unicode="&#xed;" horiz-adv-x="598" d="M145 1102h308v-1102h-308v1102zM449 1251h-293l260 363l317 -133z" />
<glyph unicode="&#xee;" horiz-adv-x="598" d="M297 1397l-150 -146h-231l231 324h302l231 -324h-231zM145 1102h308v-1102h-308v1102z" />
<glyph unicode="&#xef;" horiz-adv-x="598" d="M145 1102h308v-1102h-308v1102zM-49 1415.5q0 63.5 44 107.5t107.5 44t107.5 -44t44 -107.5t-44 -107.5t-107.5 -44t-107.5 44t-44 107.5zM346 1415.5q0 63.5 44 107.5t107.5 44t107.5 -44t44 -107.5t-44 -107.5t-107.5 -44t-107.5 44t-44 107.5z" />
<glyph unicode="&#xf0;" horiz-adv-x="1222" d="M1135 553q0 -256 -136.5 -412.5t-373 -156.5t-386 140t-149.5 360.5t147.5 361.5t356.5 141q53 0 94 -8q-41 51 -127 145l-176 -114l-166 159l180 117q-31 27 -67 57l-76 64l252 149q86 -70 141 -120l162 106l170 -160l-170 -112q324 -371 324 -717zM452.5 313.5 q59.5 -71.5 159 -71.5t159.5 71.5t60 172t-61 172t-159.5 71.5t-158 -71.5t-59.5 -172t59.5 -172z" />
<glyph unicode="&#xf1;" horiz-adv-x="1308" d="M453 614v-614h-308v1102h308v-123q139 141 313 141t292 -123t118 -327v-670h-308v623q0 254 -186 254q-92 0 -160.5 -67t-68.5 -196zM549 1358q-63 0 -62 -107h-217q0 154 66.5 242t171.5 88q66 0 159 -56.5t113 -56.5q63 0 62 107h217q0 -154 -66.5 -242t-171.5 -88 q-63 0 -159.5 56.5t-112.5 56.5z" />
<glyph unicode="&#xf2;" horiz-adv-x="1327" d="M468 331q77 -85 196.5 -85t196.5 85t77 220t-77 221t-196.5 86t-196.5 -86t-77 -221t77 -220zM1081 147.5q-166 -163.5 -416.5 -163.5t-416.5 163.5t-166 403.5t166 404.5t416.5 164.5t416.5 -164.5t166 -404.5t-166 -403.5zM829 1251h-292l-285 230l315 135z" />
<glyph unicode="&#xf3;" horiz-adv-x="1327" d="M468 331q77 -85 196.5 -85t196.5 85t77 220t-77 221t-196.5 86t-196.5 -86t-77 -221t77 -220zM1081 147.5q-166 -163.5 -416.5 -163.5t-416.5 163.5t-166 403.5t166 404.5t416.5 164.5t416.5 -164.5t166 -404.5t-166 -403.5zM780 1251h-293l261 363l317 -133z" />
<glyph unicode="&#xf4;" horiz-adv-x="1327" d="M468 331q77 -85 196.5 -85t196.5 85t77 220t-77 221t-196.5 86t-196.5 -86t-77 -221t77 -220zM1081 147.5q-166 -163.5 -416.5 -163.5t-416.5 163.5t-166 403.5t166 404.5t416.5 164.5t416.5 -164.5t166 -404.5t-166 -403.5zM502 1251h-252l231 324h383l232 -324h-252 l-172 166z" />
<glyph unicode="&#xf5;" horiz-adv-x="1327" d="M468 331q77 -85 196.5 -85t196.5 85t77 220t-77 221t-196.5 86t-196.5 -86t-77 -221t77 -220zM1081 147.5q-166 -163.5 -416.5 -163.5t-416.5 163.5t-166 403.5t166 404.5t416.5 164.5t416.5 -164.5t166 -404.5t-166 -403.5zM551 1358q-63 0 -62 -107h-217q0 154 67 242 t171 88q66 0 159 -56.5t113 -56.5q63 0 62 107h217q0 -154 -66.5 -242t-171.5 -88q-63 0 -159.5 56.5t-112.5 56.5z" />
<glyph unicode="&#xf6;" horiz-adv-x="1327" d="M468 331q77 -85 196.5 -85t196.5 85t77 220t-77 221t-196.5 86t-196.5 -86t-77 -221t77 -220zM1081 147.5q-166 -163.5 -416.5 -163.5t-416.5 163.5t-166 403.5t166 404.5t416.5 164.5t416.5 -164.5t166 -404.5t-166 -403.5zM315 1415.5q0 63.5 44 107.5t107.5 44 t107.5 -44t44 -107.5t-44 -107.5t-107.5 -44t-107.5 44t-44 107.5zM711 1415.5q0 63.5 44 107.5t107.5 44t107.5 -44t44 -107.5t-44 -107.5t-107.5 -44t-107.5 44t-44 107.5z" />
<glyph unicode="&#xf7;" horiz-adv-x="1191" d="M416 327.5q0 75.5 52 128t128 52.5t128 -52.5t52 -128t-52 -128t-128 -52.5t-128 52.5t-52 128zM416 1104q0 76 52 128t128 52t128 -52t52 -128t-52 -128t-128 -52t-128 52t-52 128zM98 842h996v-252h-996v252z" />
<glyph unicode="&#xf8;" horiz-adv-x="1327" d="M664 -16q-45 0 -93 6l-90 -197h-288l133 291q-115 78 -179.5 201t-64.5 266q0 240 166 404.5t416 164.5q72 0 131 -14l77 174h291l-129 -283q213 -170 213 -446q0 -240 -165.5 -403.5t-417.5 -163.5zM468 772q-77 -86 -77 -212t58 -206l231 504h-16q-119 0 -196 -86z M869.5 341q68.5 83 68.5 191.5t-35 178.5l-213 -463q111 10 179.5 93z" />
<glyph unicode="&#xf9;" horiz-adv-x="1310" d="M856 508v594h309v-1102h-309v145q-115 -162 -296 -161.5t-304 114t-123 336.5v668h309v-600q0 -254 187 -254q92 0 159.5 66.5t67.5 193.5zM825 1251h-293l-284 230l315 135z" />
<glyph unicode="&#xfa;" horiz-adv-x="1310" d="M856 508v594h309v-1102h-309v145q-115 -162 -296 -161.5t-304 114t-123 336.5v668h309v-600q0 -254 187 -254q92 0 159.5 66.5t67.5 193.5zM776 1251h-293l260 363l318 -133z" />
<glyph unicode="&#xfb;" horiz-adv-x="1310" d="M856 508v594h309v-1102h-309v145q-115 -162 -296 -161.5t-304 114t-123 336.5v668h309v-600q0 -254 187 -254q92 0 159.5 66.5t67.5 193.5zM483 1251h-252l232 324h383l231 -324h-252l-172 166z" />
<glyph unicode="&#xfc;" horiz-adv-x="1310" d="M856 508v594h309v-1102h-309v145q-115 -162 -296 -161.5t-304 114t-123 336.5v668h309v-600q0 -254 187 -254q92 0 159.5 66.5t67.5 193.5zM293 1415.5q0 63.5 44 107.5t107.5 44t107.5 -44t44 -107.5t-44 -107.5t-107.5 -44t-107.5 44t-44 107.5zM688 1415.5 q0 63.5 44 107.5t107.5 44t107.5 -44t44 -107.5t-44 -107.5t-107.5 -44t-107.5 44t-44 107.5z" />
<glyph unicode="&#xfd;" horiz-adv-x="1208" d="M336 -434q-162 0 -305 131l139 227q78 -76 160 -76q43 0 73.5 42t30.5 89.5t-426 1122.5h328l268 -686l268 686h328l-512 -1299q-45 -113 -140 -175t-212 -62zM717 1251h-293l260 363l317 -133z" />
<glyph unicode="&#xfe;" horiz-adv-x="1363" d="M1121.5 966.5q158.5 -153.5 158.5 -409.5t-158.5 -414.5t-369.5 -158.5q-164 0 -299 104v-485h-308v1917h308v-510q123 111 295 110q215 0 373.5 -153.5zM523.5 331q74.5 -85 181 -85t186.5 85t80 218t-78 223t-186.5 90t-183 -89t-74.5 -223t74.5 -219z" />
<glyph unicode="&#xff;" horiz-adv-x="1208" d="M336 -434q-162 0 -305 131l139 227q78 -76 160 -76q43 0 73.5 42t30.5 89.5t-426 1122.5h328l268 -686l268 686h328l-512 -1299q-45 -113 -140 -175t-212 -62zM254 1415.5q0 63.5 44 107.5t107.5 44t107.5 -44t44 -107.5t-44 -107.5t-107.5 -44t-107.5 44t-44 107.5z M649 1415.5q0 63.5 44 107.5t107.5 44t107.5 -44t44 -107.5t-44 -107.5t-107.5 -44t-107.5 44t-44 107.5z" />
<glyph unicode="&#x152;" horiz-adv-x="2134" d="M2003 1430v-283h-713v-295h639v-272h-639v-297h735v-283h-1200q-309 0 -519 205t-210 510t210 510t519 205h1178zM555 1031q-119 -130 -119 -315.5t119 -316.5t291 -131h123v893h-123q-172 0 -291 -130z" />
<glyph unicode="&#x153;" horiz-adv-x="2119" d="M1954 160q-186 -176 -447.5 -176t-421.5 170q-166 -170 -418.5 -170t-418.5 163.5t-166 403.5t166 404.5t419 164.5t420 -172q162 172 400.5 172t397.5 -137t159 -377v-164h-803q14 -90 94 -147t181 -57q162 0 266 108zM938 537v14q0 135 -77 221t-196.5 86t-196.5 -86 t-77 -221t77 -220t194.5 -85t194.5 81t81 210zM1658.5 813q-63.5 53 -154.5 53t-166.5 -55t-88.5 -149h484q-11 98 -74.5 151z" />
<glyph unicode="&#x2c6;" horiz-adv-x="989" d="M324 1579h-252l231 324h383l232 -324h-252l-172 166z" />
<glyph unicode="&#x2dc;" horiz-adv-x="1198" d="M498 1358q-63 0 -62 -107h-217q0 154 66.5 242t171.5 88q66 0 159 -56.5t113 -56.5q63 0 62 107h217q0 -154 -67 -242t-171 -88q-63 0 -159.5 56.5t-112.5 56.5z" />
<glyph unicode="&#x2000;" horiz-adv-x="971" />
<glyph unicode="&#x2001;" horiz-adv-x="1942" />
<glyph unicode="&#x2002;" horiz-adv-x="971" />
<glyph unicode="&#x2003;" horiz-adv-x="1942" />
<glyph unicode="&#x2004;" horiz-adv-x="647" />
<glyph unicode="&#x2005;" horiz-adv-x="485" />
<glyph unicode="&#x2006;" horiz-adv-x="323" />
<glyph unicode="&#x2007;" horiz-adv-x="323" />
<glyph unicode="&#x2008;" horiz-adv-x="242" />
<glyph unicode="&#x2009;" horiz-adv-x="388" />
<glyph unicode="&#x200a;" horiz-adv-x="107" />
<glyph unicode="&#x2010;" horiz-adv-x="1003" d="M137 479v273h729v-273h-729z" />
<glyph unicode="&#x2011;" horiz-adv-x="1003" d="M137 479v273h729v-273h-729z" />
<glyph unicode="&#x2012;" horiz-adv-x="1003" d="M137 479v273h729v-273h-729z" />
<glyph unicode="&#x2013;" horiz-adv-x="1112" d="M152 440v199h809v-199h-809z" />
<glyph unicode="&#x2014;" horiz-adv-x="1427" d="M131 442v197h1165v-197h-1165z" />
<glyph unicode="&#x2018;" horiz-adv-x="491" d="M344 1221q68 -45 68 -126t-48.5 -128t-121 -47t-120.5 45t-48 116.5t45 141.5l149 217h168z" />
<glyph unicode="&#x2019;" horiz-adv-x="491" d="M147 1133q-68 45 -67.5 125.5t48.5 128t121 47.5t121 -45.5t48 -117t-45 -141.5l-150 -217h-168z" />
<glyph unicode="&#x201a;" horiz-adv-x="491" d="M147 23q-68 45 -67.5 125.5t48.5 128t121 47.5t121 -45.5t48 -117t-45 -141.5l-150 -217h-168z" />
<glyph unicode="&#x201c;" horiz-adv-x="870" d="M344 1221q68 -45 68 -126t-48.5 -128t-121 -47t-120.5 45t-48 116.5t45 141.5l149 217h168zM723 1221q68 -45 68 -126t-48.5 -128t-121 -47t-120.5 45t-48 116.5t45 141.5l149 217h168z" />
<glyph unicode="&#x201d;" horiz-adv-x="870" d="M147 1133q-68 45 -67.5 125.5t48.5 128t121 47.5t121 -45.5t48 -117t-45 -141.5l-150 -217h-168zM526 1133q-68 45 -67.5 125.5t48.5 128t120.5 47.5t121 -45.5t48.5 -117t-45 -141.5l-150 -217h-168z" />
<glyph unicode="&#x201e;" horiz-adv-x="870" d="M147 23q-68 45 -67.5 125.5t48.5 128t121 47.5t121 -45.5t48 -117t-45 -141.5l-150 -217h-168zM526 23q-68 45 -67.5 125.5t48.5 128t120.5 47.5t121 -45.5t48.5 -117t-45 -141.5l-150 -217h-168z" />
<glyph unicode="&#x2022;" horiz-adv-x="897" d="M164 649q0 119 83 202t201.5 83t201.5 -83t83 -202t-83 -201.5t-201.5 -82.5t-201.5 82.5t-83 201.5z" />
<glyph unicode="&#x2026;" horiz-adv-x="1435" d="M958 162q0 76 52.5 128t128 52t128 -52t52.5 -128t-52.5 -128t-128 -52t-128 52t-52.5 128zM537 162q0 76 52 128t128 52t128 -52t52 -128t-52 -128t-128 -52t-128 52t-52 128zM117 162q0 76 52 128t128 52t128 -52t52 -128t-52 -128t-128 -52t-128 52t-52 128z" />
<glyph unicode="&#x202f;" horiz-adv-x="388" />
<glyph unicode="&#x2039;" horiz-adv-x="776" d="M657 879l-241 -377l241 -379h-309l-250 379l250 377h309z" />
<glyph unicode="&#x203a;" horiz-adv-x="776" d="M360 502l-241 377h309l250 -377l-250 -379h-309z" />
<glyph unicode="&#x205f;" horiz-adv-x="485" />
<glyph unicode="&#x20ac;" horiz-adv-x="1568" d="M94 778v172h199q61 233 234 373.5t421 140.5q307 0 527 -247l-183 -238q-150 182 -352 182q-229 0 -317 -211h477v-172h-514q-2 -20 -2 -61t2 -60h514v-172h-467q49 -96 134 -147t187 -51q203 0 332 162l189 -209q-111 -129 -255.5 -192.5t-287.5 -63.5 q-231 0 -403.5 136t-235.5 365h-199v172h172q-2 18 -2 59.5t2 61.5h-172z" />
<glyph unicode="&#x2122;" horiz-adv-x="2027" d="M592 1221v-654h-225v654h-238v211h700v-211h-237zM1108 567h-225v865h286l203 -431l203 431h285v-865h-226v459l-192 -391h-142l-192 391v-459z" />
<glyph unicode="&#xe000;" horiz-adv-x="1105" d="M0 1106h1106v-1106h-1106v1106z" />
<glyph unicode="&#xfb01;" horiz-adv-x="1421" d="M512 1165v-73h266v-222h-266v-870h-309v870h-129v222h129v67q0 180 109.5 285.5t272.5 105.5t296 -123l-111 -206q-68 78 -149 77q-47 0 -78 -33.5t-31 -99.5zM1276 0h-307v1102h307v-1102zM942 1370q0 76 52.5 128t128 52t128 -52t52.5 -128t-52.5 -128t-128 -52 t-128 52t-52.5 128z" />
<glyph unicode="&#xfb02;" horiz-adv-x="1421" d="M512 1165v-73h266v-222h-266v-870h-309v870h-129v222h129v67q0 180 109.5 285.5t272.5 105.5t296 -123l-111 -206q-68 78 -149 77q-47 0 -78 -33.5t-31 -99.5zM1276 0h-307v1520h307v-1520z" />
<hkern u1="&#x26;" u2="&#x2019;" k="57" />
<hkern u1="&#x26;" u2="&#xc6;" k="-27" />
<hkern u1="&#x26;" u2="Y" k="47" />
<hkern u1="&#x26;" u2="W" k="35" />
<hkern u1="&#x26;" u2="V" k="43" />
<hkern u1="&#x26;" u2="T" k="43" />
<hkern u1="&#x26;" u2="A" k="-16" />
<hkern u1="&#x26;" u2="&#x27;" k="55" />
<hkern u1="&#x27;" u2="&#x2039;" k="35" />
<hkern u1="&#x27;" u2="&#xf0;" k="18" />
<hkern u1="&#x27;" u2="&#xc6;" k="96" />
<hkern u1="&#x27;" u2="d" k="23" />
<hkern u1="&#x27;" u2="J" k="33" />
<hkern u1="&#x27;" u2="A" k="84" />
<hkern u1="&#x27;" u2="&#x34;" k="35" />
<hkern u1="&#x27;" u2="&#x2f;" k="137" />
<hkern u1="&#x27;" u2="&#x2e;" k="236" />
<hkern u1="&#x27;" u2="&#x26;" k="33" />
<hkern u1="&#x28;" u2="&#xf0;" k="37" />
<hkern u1="&#x28;" u2="&#xef;" k="-27" />
<hkern u1="&#x28;" u2="&#xec;" k="-90" />
<hkern u1="&#x28;" u2="&#x7b;" k="20" />
<hkern u1="&#x28;" u2="w" k="27" />
<hkern u1="&#x28;" u2="v" k="23" />
<hkern u1="&#x28;" u2="u" k="41" />
<hkern u1="&#x28;" u2="t" k="25" />
<hkern u1="&#x28;" u2="s" k="35" />
<hkern u1="&#x28;" u2="q" k="53" />
<hkern u1="&#x28;" u2="o" k="55" />
<hkern u1="&#x28;" u2="n" k="29" />
<hkern u1="&#x28;" u2="j" k="-207" />
<hkern u1="&#x28;" u2="f" k="25" />
<hkern u1="&#x28;" u2="d" k="53" />
<hkern u1="&#x28;" u2="a" k="41" />
<hkern u1="&#x28;" u2="S" k="25" />
<hkern u1="&#x28;" u2="O" k="45" />
<hkern u1="&#x28;" u2="&#x39;" k="20" />
<hkern u1="&#x28;" u2="&#x38;" k="31" />
<hkern u1="&#x28;" u2="&#x36;" k="39" />
<hkern u1="&#x28;" u2="&#x34;" k="45" />
<hkern u1="&#x28;" u2="&#x30;" k="39" />
<hkern u1="&#x28;" u2="&#x28;" k="20" />
<hkern u1="&#x29;" u2="&#x29;" k="20" />
<hkern u1="&#x2a;" u2="&#x2019;" k="-12" />
<hkern u1="&#x2a;" u2="&#xf0;" k="23" />
<hkern u1="&#x2a;" u2="&#xef;" k="-18" />
<hkern u1="&#x2a;" u2="&#xee;" k="-59" />
<hkern u1="&#x2a;" u2="&#xc6;" k="92" />
<hkern u1="&#x2a;" u2="y" k="-27" />
<hkern u1="&#x2a;" u2="o" k="16" />
<hkern u1="&#x2a;" u2="d" k="23" />
<hkern u1="&#x2a;" u2="J" k="37" />
<hkern u1="&#x2a;" u2="A" k="82" />
<hkern u1="&#x2d;" u2="&#xc6;" k="18" />
<hkern u1="&#x2d;" u2="z" k="18" />
<hkern u1="&#x2d;" u2="x" k="43" />
<hkern u1="&#x2d;" u2="Z" k="31" />
<hkern u1="&#x2d;" u2="Y" k="78" />
<hkern u1="&#x2d;" u2="X" k="55" />
<hkern u1="&#x2d;" u2="W" k="37" />
<hkern u1="&#x2d;" u2="V" k="49" />
<hkern u1="&#x2d;" u2="T" k="109" />
<hkern u1="&#x2d;" u2="J" k="49" />
<hkern u1="&#x2d;" u2="A" k="25" />
<hkern u1="&#x2d;" u2="&#x37;" k="27" />
<hkern u1="&#x2d;" u2="&#x33;" k="33" />
<hkern u1="&#x2d;" u2="&#x32;" k="31" />
<hkern u1="&#x2d;" u2="&#x31;" k="47" />
<hkern u1="&#x2e;" u2="&#x2019;" k="264" />
<hkern u1="&#x2e;" u2="&#x2018;" k="264" />
<hkern u1="&#x2e;" u2="y" k="70" />
<hkern u1="&#x2e;" u2="w" k="53" />
<hkern u1="&#x2e;" u2="v" k="68" />
<hkern u1="&#x2e;" u2="t" k="29" />
<hkern u1="&#x2e;" u2="f" k="16" />
<hkern u1="&#x2e;" u2="Y" k="111" />
<hkern u1="&#x2e;" u2="W" k="90" />
<hkern u1="&#x2e;" u2="V" k="113" />
<hkern u1="&#x2e;" u2="U" k="27" />
<hkern u1="&#x2e;" u2="T" k="111" />
<hkern u1="&#x2e;" u2="O" k="31" />
<hkern u1="&#x2e;" u2="&#x37;" k="29" />
<hkern u1="&#x2e;" u2="&#x31;" k="57" />
<hkern u1="&#x2e;" u2="&#x27;" k="236" />
<hkern u1="&#x2f;" u2="&#xf0;" k="43" />
<hkern u1="&#x2f;" u2="&#xec;" k="-55" />
<hkern u1="&#x2f;" u2="&#xce;" k="-78" />
<hkern u1="&#x2f;" u2="&#xc6;" k="129" />
<hkern u1="&#x2f;" u2="z" k="49" />
<hkern u1="&#x2f;" u2="x" k="27" />
<hkern u1="&#x2f;" u2="u" k="49" />
<hkern u1="&#x2f;" u2="s" k="84" />
<hkern u1="&#x2f;" u2="q" k="88" />
<hkern u1="&#x2f;" u2="o" k="88" />
<hkern u1="&#x2f;" u2="n" k="51" />
<hkern u1="&#x2f;" u2="f" k="27" />
<hkern u1="&#x2f;" u2="d" k="86" />
<hkern u1="&#x2f;" u2="a" k="74" />
<hkern u1="&#x2f;" u2="S" k="35" />
<hkern u1="&#x2f;" u2="O" k="49" />
<hkern u1="&#x2f;" u2="J" k="27" />
<hkern u1="&#x2f;" u2="A" k="121" />
<hkern u1="&#x2f;" u2="&#x39;" k="23" />
<hkern u1="&#x2f;" u2="&#x38;" k="37" />
<hkern u1="&#x2f;" u2="&#x36;" k="43" />
<hkern u1="&#x2f;" u2="&#x34;" k="82" />
<hkern u1="&#x2f;" u2="&#x30;" k="41" />
<hkern u1="&#x2f;" u2="&#x2f;" k="580" />
<hkern u1="&#x3a;" u2="&#x2019;" k="20" />
<hkern u1="&#x3a;" u2="y" k="16" />
<hkern u1="&#x3a;" u2="Y" k="70" />
<hkern u1="&#x3a;" u2="W" k="37" />
<hkern u1="&#x3a;" u2="V" k="49" />
<hkern u1="&#x3a;" u2="T" k="102" />
<hkern u1="&#x40;" u2="Y" k="45" />
<hkern u1="&#x40;" u2="W" k="20" />
<hkern u1="&#x40;" u2="V" k="31" />
<hkern u1="&#x40;" u2="T" k="41" />
<hkern u1="A" u2="&#x2122;" k="86" />
<hkern u1="A" u2="&#x2019;" k="96" />
<hkern u1="A" u2="&#x2018;" k="96" />
<hkern u1="A" u2="&#xf0;" k="23" />
<hkern u1="A" u2="&#xae;" k="23" />
<hkern u1="A" u2="y" k="63" />
<hkern u1="A" u2="w" k="57" />
<hkern u1="A" u2="v" k="63" />
<hkern u1="A" u2="u" k="20" />
<hkern u1="A" u2="t" k="57" />
<hkern u1="A" u2="q" k="25" />
<hkern u1="A" u2="o" k="27" />
<hkern u1="A" u2="f" k="23" />
<hkern u1="A" u2="d" k="27" />
<hkern u1="A" u2="a" k="10" />
<hkern u1="A" u2="\" k="111" />
<hkern u1="A" u2="Y" k="100" />
<hkern u1="A" u2="W" k="76" />
<hkern u1="A" u2="V" k="88" />
<hkern u1="A" u2="U" k="39" />
<hkern u1="A" u2="T" k="104" />
<hkern u1="A" u2="S" k="10" />
<hkern u1="A" u2="O" k="43" />
<hkern u1="A" u2="&#x3f;" k="39" />
<hkern u1="A" u2="&#x31;" k="39" />
<hkern u1="A" u2="&#x2d;" k="25" />
<hkern u1="A" u2="&#x2a;" k="82" />
<hkern u1="A" u2="&#x27;" k="84" />
<hkern u1="B" u2="&#xf0;" k="10" />
<hkern u1="B" u2="z" k="12" />
<hkern u1="B" u2="y" k="20" />
<hkern u1="B" u2="x" k="31" />
<hkern u1="B" u2="w" k="18" />
<hkern u1="B" u2="v" k="18" />
<hkern u1="B" u2="u" k="10" />
<hkern u1="B" u2="t" k="23" />
<hkern u1="B" u2="s" k="18" />
<hkern u1="B" u2="o" k="10" />
<hkern u1="B" u2="f" k="20" />
<hkern u1="B" u2="d" k="10" />
<hkern u1="B" u2="]" k="33" />
<hkern u1="B" u2="\" k="29" />
<hkern u1="B" u2="Z" k="12" />
<hkern u1="B" u2="Y" k="41" />
<hkern u1="B" u2="X" k="25" />
<hkern u1="B" u2="W" k="20" />
<hkern u1="B" u2="V" k="31" />
<hkern u1="B" u2="T" k="37" />
<hkern u1="B" u2="J" k="18" />
<hkern u1="B" u2="A" k="16" />
<hkern u1="B" u2="&#x2f;" k="25" />
<hkern u1="B" u2="&#x29;" k="33" />
<hkern u1="C" u2="&#x2122;" k="-45" />
<hkern u1="C" u2="&#xf0;" k="33" />
<hkern u1="C" u2="&#xef;" k="-14" />
<hkern u1="C" u2="&#xee;" k="-27" />
<hkern u1="C" u2="u" k="16" />
<hkern u1="C" u2="t" k="10" />
<hkern u1="C" u2="s" k="23" />
<hkern u1="C" u2="q" k="41" />
<hkern u1="C" u2="o" k="43" />
<hkern u1="C" u2="n" k="14" />
<hkern u1="C" u2="f" k="10" />
<hkern u1="C" u2="d" k="43" />
<hkern u1="C" u2="a" k="12" />
<hkern u1="C" u2="O" k="31" />
<hkern u1="C" u2="A" k="10" />
<hkern u1="C" u2="&#x2d;" k="16" />
<hkern u1="C" u2="&#x2a;" k="-29" />
<hkern u1="D" u2="&#xf0;" k="12" />
<hkern u1="D" u2="&#xc6;" k="41" />
<hkern u1="D" u2="z" k="16" />
<hkern u1="D" u2="x" k="31" />
<hkern u1="D" u2="u" k="10" />
<hkern u1="D" u2="t" k="10" />
<hkern u1="D" u2="s" k="18" />
<hkern u1="D" u2="n" k="12" />
<hkern u1="D" u2="l" k="12" />
<hkern u1="D" u2="i" k="12" />
<hkern u1="D" u2="h" k="12" />
<hkern u1="D" u2="f" k="10" />
<hkern u1="D" u2="a" k="14" />
<hkern u1="D" u2="]" k="43" />
<hkern u1="D" u2="\" k="37" />
<hkern u1="D" u2="Z" k="27" />
<hkern u1="D" u2="Y" k="49" />
<hkern u1="D" u2="X" k="53" />
<hkern u1="D" u2="W" k="23" />
<hkern u1="D" u2="V" k="33" />
<hkern u1="D" u2="T" k="37" />
<hkern u1="D" u2="S" k="10" />
<hkern u1="D" u2="J" k="41" />
<hkern u1="D" u2="A" k="41" />
<hkern u1="D" u2="&#x2f;" k="53" />
<hkern u1="D" u2="&#x2e;" k="23" />
<hkern u1="D" u2="&#x29;" k="45" />
<hkern u1="E" u2="&#xf0;" k="25" />
<hkern u1="E" u2="&#xee;" k="-14" />
<hkern u1="E" u2="u" k="14" />
<hkern u1="E" u2="t" k="16" />
<hkern u1="E" u2="s" k="10" />
<hkern u1="E" u2="q" k="25" />
<hkern u1="E" u2="o" k="25" />
<hkern u1="E" u2="n" k="10" />
<hkern u1="E" u2="f" k="12" />
<hkern u1="E" u2="d" k="25" />
<hkern u1="E" u2="a" k="14" />
<hkern u1="E" u2="O" k="23" />
<hkern u1="F" u2="&#xf0;" k="29" />
<hkern u1="F" u2="&#xef;" k="-18" />
<hkern u1="F" u2="&#xee;" k="-51" />
<hkern u1="F" u2="&#xec;" k="-18" />
<hkern u1="F" u2="&#xc6;" k="94" />
<hkern u1="F" u2="z" k="25" />
<hkern u1="F" u2="x" k="14" />
<hkern u1="F" u2="u" k="16" />
<hkern u1="F" u2="t" k="10" />
<hkern u1="F" u2="s" k="35" />
<hkern u1="F" u2="q" k="23" />
<hkern u1="F" u2="o" k="23" />
<hkern u1="F" u2="n" k="20" />
<hkern u1="F" u2="f" k="10" />
<hkern u1="F" u2="d" k="23" />
<hkern u1="F" u2="a" k="31" />
<hkern u1="F" u2="S" k="10" />
<hkern u1="F" u2="J" k="39" />
<hkern u1="F" u2="A" k="78" />
<hkern u1="F" u2="&#x2f;" k="80" />
<hkern u1="F" u2="&#x2e;" k="82" />
<hkern u1="G" u2="z" k="10" />
<hkern u1="G" u2="y" k="18" />
<hkern u1="G" u2="x" k="18" />
<hkern u1="G" u2="w" k="18" />
<hkern u1="G" u2="v" k="16" />
<hkern u1="G" u2="t" k="18" />
<hkern u1="G" u2="s" k="10" />
<hkern u1="G" u2="f" k="16" />
<hkern u1="G" u2="Y" k="25" />
<hkern u1="G" u2="X" k="12" />
<hkern u1="G" u2="W" k="12" />
<hkern u1="G" u2="V" k="20" />
<hkern u1="G" u2="T" k="23" />
<hkern u1="G" u2="A" k="12" />
<hkern u1="G" u2="&#x29;" k="23" />
<hkern u1="I" u2="&#xf0;" k="25" />
<hkern u1="I" u2="z" k="12" />
<hkern u1="I" u2="u" k="10" />
<hkern u1="I" u2="t" k="18" />
<hkern u1="I" u2="s" k="14" />
<hkern u1="I" u2="q" k="20" />
<hkern u1="I" u2="o" k="20" />
<hkern u1="I" u2="n" k="10" />
<hkern u1="I" u2="l" k="10" />
<hkern u1="I" u2="i" k="10" />
<hkern u1="I" u2="h" k="10" />
<hkern u1="I" u2="f" k="16" />
<hkern u1="I" u2="d" k="20" />
<hkern u1="I" u2="a" k="14" />
<hkern u1="J" u2="&#xf0;" k="25" />
<hkern u1="J" u2="&#xc6;" k="23" />
<hkern u1="J" u2="z" k="18" />
<hkern u1="J" u2="x" k="12" />
<hkern u1="J" u2="u" k="16" />
<hkern u1="J" u2="t" k="14" />
<hkern u1="J" u2="s" k="23" />
<hkern u1="J" u2="q" k="18" />
<hkern u1="J" u2="o" k="18" />
<hkern u1="J" u2="n" k="10" />
<hkern u1="J" u2="l" k="12" />
<hkern u1="J" u2="i" k="12" />
<hkern u1="J" u2="h" k="12" />
<hkern u1="J" u2="f" k="14" />
<hkern u1="J" u2="d" k="18" />
<hkern u1="J" u2="a" k="18" />
<hkern u1="J" u2="J" k="16" />
<hkern u1="J" u2="A" k="20" />
<hkern u1="J" u2="&#x2f;" k="41" />
<hkern u1="K" u2="&#x2039;" k="29" />
<hkern u1="K" u2="&#xf0;" k="82" />
<hkern u1="K" u2="&#xef;" k="-84" />
<hkern u1="K" u2="&#xee;" k="-31" />
<hkern u1="K" u2="&#xec;" k="-88" />
<hkern u1="K" u2="&#xae;" k="20" />
<hkern u1="K" u2="y" k="53" />
<hkern u1="K" u2="w" k="59" />
<hkern u1="K" u2="v" k="53" />
<hkern u1="K" u2="u" k="49" />
<hkern u1="K" u2="t" k="31" />
<hkern u1="K" u2="s" k="14" />
<hkern u1="K" u2="q" k="90" />
<hkern u1="K" u2="o" k="96" />
<hkern u1="K" u2="n" k="14" />
<hkern u1="K" u2="f" k="23" />
<hkern u1="K" u2="d" k="94" />
<hkern u1="K" u2="a" k="33" />
<hkern u1="K" u2="S" k="39" />
<hkern u1="K" u2="O" k="74" />
<hkern u1="K" u2="&#x2d;" k="55" />
<hkern u1="L" u2="&#x2122;" k="162" />
<hkern u1="L" u2="&#x2019;" k="168" />
<hkern u1="L" u2="&#x2018;" k="168" />
<hkern u1="L" u2="&#xb7;" k="123" />
<hkern u1="L" u2="y" k="98" />
<hkern u1="L" u2="w" k="82" />
<hkern u1="L" u2="v" k="100" />
<hkern u1="L" u2="u" k="14" />
<hkern u1="L" u2="t" k="55" />
<hkern u1="L" u2="q" k="14" />
<hkern u1="L" u2="o" k="14" />
<hkern u1="L" u2="f" k="31" />
<hkern u1="L" u2="d" k="14" />
<hkern u1="L" u2="\" k="131" />
<hkern u1="L" u2="Y" k="125" />
<hkern u1="L" u2="W" k="102" />
<hkern u1="L" u2="V" k="121" />
<hkern u1="L" u2="U" k="31" />
<hkern u1="L" u2="T" k="127" />
<hkern u1="L" u2="O" k="39" />
<hkern u1="L" u2="&#x3f;" k="45" />
<hkern u1="L" u2="&#x31;" k="41" />
<hkern u1="L" u2="&#x2d;" k="100" />
<hkern u1="L" u2="&#x2a;" k="170" />
<hkern u1="L" u2="&#x27;" k="166" />
<hkern u1="O" u2="&#xf0;" k="14" />
<hkern u1="O" u2="&#xc6;" k="47" />
<hkern u1="O" u2="z" k="18" />
<hkern u1="O" u2="x" k="33" />
<hkern u1="O" u2="t" k="12" />
<hkern u1="O" u2="s" k="16" />
<hkern u1="O" u2="n" k="12" />
<hkern u1="O" u2="l" k="12" />
<hkern u1="O" u2="i" k="12" />
<hkern u1="O" u2="h" k="12" />
<hkern u1="O" u2="f" k="10" />
<hkern u1="O" u2="a" k="14" />
<hkern u1="O" u2="]" k="43" />
<hkern u1="O" u2="\" k="37" />
<hkern u1="O" u2="Z" k="29" />
<hkern u1="O" u2="Y" k="51" />
<hkern u1="O" u2="X" k="55" />
<hkern u1="O" u2="W" k="23" />
<hkern u1="O" u2="V" k="33" />
<hkern u1="O" u2="T" k="39" />
<hkern u1="O" u2="S" k="12" />
<hkern u1="O" u2="J" k="45" />
<hkern u1="O" u2="A" k="43" />
<hkern u1="O" u2="&#x2f;" k="55" />
<hkern u1="O" u2="&#x2e;" k="31" />
<hkern u1="O" u2="&#x29;" k="45" />
<hkern u1="P" u2="&#xf0;" k="25" />
<hkern u1="P" u2="&#xc6;" k="104" />
<hkern u1="P" u2="z" k="10" />
<hkern u1="P" u2="s" k="16" />
<hkern u1="P" u2="q" k="12" />
<hkern u1="P" u2="o" k="14" />
<hkern u1="P" u2="d" k="12" />
<hkern u1="P" u2="a" k="18" />
<hkern u1="P" u2="]" k="25" />
<hkern u1="P" u2="Z" k="16" />
<hkern u1="P" u2="Y" k="10" />
<hkern u1="P" u2="X" k="43" />
<hkern u1="P" u2="J" k="59" />
<hkern u1="P" u2="A" k="84" />
<hkern u1="P" u2="&#x2f;" k="90" />
<hkern u1="P" u2="&#x2e;" k="106" />
<hkern u1="P" u2="&#x29;" k="37" />
<hkern u1="Q" u2="&#x201e;" k="6" />
<hkern u1="Q" u2="&#x201a;" k="6" />
<hkern u1="Q" u2="&#xc6;" k="29" />
<hkern u1="Q" u2="j" k="-172" />
<hkern u1="Q" u2="]" k="-6" />
<hkern u1="Q" u2="&#x2f;" k="31" />
<hkern u1="R" u2="&#x2039;" k="29" />
<hkern u1="R" u2="&#xf0;" k="45" />
<hkern u1="R" u2="y" k="14" />
<hkern u1="R" u2="w" k="12" />
<hkern u1="R" u2="v" k="12" />
<hkern u1="R" u2="u" k="23" />
<hkern u1="R" u2="t" k="20" />
<hkern u1="R" u2="q" k="37" />
<hkern u1="R" u2="o" k="41" />
<hkern u1="R" u2="n" k="10" />
<hkern u1="R" u2="l" k="10" />
<hkern u1="R" u2="i" k="10" />
<hkern u1="R" u2="h" k="10" />
<hkern u1="R" u2="f" k="14" />
<hkern u1="R" u2="d" k="37" />
<hkern u1="R" u2="a" k="27" />
<hkern u1="R" u2="\" k="33" />
<hkern u1="R" u2="Y" k="37" />
<hkern u1="R" u2="W" k="18" />
<hkern u1="R" u2="V" k="27" />
<hkern u1="R" u2="T" k="29" />
<hkern u1="R" u2="O" k="14" />
<hkern u1="R" u2="J" k="16" />
<hkern u1="S" u2="&#xf0;" k="10" />
<hkern u1="S" u2="&#xee;" k="-31" />
<hkern u1="S" u2="z" k="18" />
<hkern u1="S" u2="y" k="25" />
<hkern u1="S" u2="x" k="23" />
<hkern u1="S" u2="w" k="25" />
<hkern u1="S" u2="v" k="20" />
<hkern u1="S" u2="u" k="14" />
<hkern u1="S" u2="t" k="29" />
<hkern u1="S" u2="s" k="20" />
<hkern u1="S" u2="q" k="10" />
<hkern u1="S" u2="o" k="10" />
<hkern u1="S" u2="n" k="16" />
<hkern u1="S" u2="f" k="29" />
<hkern u1="S" u2="d" k="10" />
<hkern u1="S" u2="Y" k="10" />
<hkern u1="S" u2="X" k="10" />
<hkern u1="S" u2="V" k="10" />
<hkern u1="S" u2="T" k="12" />
<hkern u1="S" u2="A" k="16" />
<hkern u1="S" u2="&#x2f;" k="25" />
<hkern u1="T" u2="&#x203a;" k="98" />
<hkern u1="T" u2="&#x2039;" k="115" />
<hkern u1="T" u2="&#xf1;" k="78" />
<hkern u1="T" u2="&#xf0;" k="82" />
<hkern u1="T" u2="&#xef;" k="-53" />
<hkern u1="T" u2="&#xee;" k="-88" />
<hkern u1="T" u2="&#xed;" k="27" />
<hkern u1="T" u2="&#xec;" k="-57" />
<hkern u1="T" u2="&#xdf;" k="27" />
<hkern u1="T" u2="&#xc6;" k="113" />
<hkern u1="T" u2="z" k="137" />
<hkern u1="T" u2="y" k="135" />
<hkern u1="T" u2="x" k="131" />
<hkern u1="T" u2="w" k="125" />
<hkern u1="T" u2="v" k="133" />
<hkern u1="T" u2="u" k="100" />
<hkern u1="T" u2="s" k="131" />
<hkern u1="T" u2="q" k="119" />
<hkern u1="T" u2="o" k="123" />
<hkern u1="T" u2="n" k="43" />
<hkern u1="T" u2="l" k="10" />
<hkern u1="T" u2="i" k="10" />
<hkern u1="T" u2="h" k="10" />
<hkern u1="T" u2="f" k="14" />
<hkern u1="T" u2="d" k="119" />
<hkern u1="T" u2="a" k="131" />
<hkern u1="T" u2="S" k="12" />
<hkern u1="T" u2="O" k="39" />
<hkern u1="T" u2="J" k="31" />
<hkern u1="T" u2="A" k="104" />
<hkern u1="T" u2="&#x40;" k="45" />
<hkern u1="T" u2="&#x3a;" k="102" />
<hkern u1="T" u2="&#x34;" k="57" />
<hkern u1="T" u2="&#x2f;" k="102" />
<hkern u1="T" u2="&#x2e;" k="111" />
<hkern u1="T" u2="&#x2d;" k="109" />
<hkern u1="T" u2="&#x26;" k="25" />
<hkern u1="U" u2="&#xf0;" k="27" />
<hkern u1="U" u2="&#xc6;" k="43" />
<hkern u1="U" u2="z" k="23" />
<hkern u1="U" u2="x" k="14" />
<hkern u1="U" u2="u" k="16" />
<hkern u1="U" u2="t" k="14" />
<hkern u1="U" u2="s" k="29" />
<hkern u1="U" u2="q" k="20" />
<hkern u1="U" u2="o" k="20" />
<hkern u1="U" u2="n" k="16" />
<hkern u1="U" u2="l" k="12" />
<hkern u1="U" u2="i" k="12" />
<hkern u1="U" u2="h" k="12" />
<hkern u1="U" u2="f" k="14" />
<hkern u1="U" u2="d" k="20" />
<hkern u1="U" u2="a" k="23" />
<hkern u1="U" u2="J" k="27" />
<hkern u1="U" u2="A" k="37" />
<hkern u1="U" u2="&#x2f;" k="51" />
<hkern u1="U" u2="&#x2e;" k="27" />
<hkern u1="V" u2="&#x2122;" k="-29" />
<hkern u1="V" u2="&#x203a;" k="31" />
<hkern u1="V" u2="&#x2039;" k="70" />
<hkern u1="V" u2="&#xf0;" k="61" />
<hkern u1="V" u2="&#xef;" k="-115" />
<hkern u1="V" u2="&#xee;" k="-86" />
<hkern u1="V" u2="&#xed;" k="23" />
<hkern u1="V" u2="&#xec;" k="-117" />
<hkern u1="V" u2="&#xdf;" k="27" />
<hkern u1="V" u2="&#xc6;" k="96" />
<hkern u1="V" u2="z" k="49" />
<hkern u1="V" u2="x" k="16" />
<hkern u1="V" u2="u" k="49" />
<hkern u1="V" u2="t" k="12" />
<hkern u1="V" u2="s" k="98" />
<hkern u1="V" u2="q" k="94" />
<hkern u1="V" u2="o" k="94" />
<hkern u1="V" u2="n" k="57" />
<hkern u1="V" u2="f" k="16" />
<hkern u1="V" u2="d" k="94" />
<hkern u1="V" u2="a" k="84" />
<hkern u1="V" u2="S" k="18" />
<hkern u1="V" u2="O" k="33" />
<hkern u1="V" u2="J" k="31" />
<hkern u1="V" u2="A" k="88" />
<hkern u1="V" u2="&#x40;" k="31" />
<hkern u1="V" u2="&#x3a;" k="49" />
<hkern u1="V" u2="&#x34;" k="39" />
<hkern u1="V" u2="&#x31;" k="-16" />
<hkern u1="V" u2="&#x2f;" k="111" />
<hkern u1="V" u2="&#x2e;" k="113" />
<hkern u1="V" u2="&#x2d;" k="49" />
<hkern u1="V" u2="&#x26;" k="27" />
<hkern u1="W" u2="&#x2122;" k="-12" />
<hkern u1="W" u2="&#x2039;" k="55" />
<hkern u1="W" u2="&#xf0;" k="57" />
<hkern u1="W" u2="&#xef;" k="-98" />
<hkern u1="W" u2="&#xee;" k="-74" />
<hkern u1="W" u2="&#xed;" k="18" />
<hkern u1="W" u2="&#xec;" k="-100" />
<hkern u1="W" u2="&#xdf;" k="25" />
<hkern u1="W" u2="&#xc6;" k="86" />
<hkern u1="W" u2="z" k="41" />
<hkern u1="W" u2="x" k="12" />
<hkern u1="W" u2="u" k="41" />
<hkern u1="W" u2="s" k="88" />
<hkern u1="W" u2="q" k="82" />
<hkern u1="W" u2="o" k="86" />
<hkern u1="W" u2="n" k="47" />
<hkern u1="W" u2="f" k="12" />
<hkern u1="W" u2="d" k="80" />
<hkern u1="W" u2="a" k="70" />
<hkern u1="W" u2="S" k="10" />
<hkern u1="W" u2="O" k="23" />
<hkern u1="W" u2="J" k="27" />
<hkern u1="W" u2="A" k="76" />
<hkern u1="W" u2="&#x40;" k="20" />
<hkern u1="W" u2="&#x3a;" k="37" />
<hkern u1="W" u2="&#x34;" k="25" />
<hkern u1="W" u2="&#x2f;" k="94" />
<hkern u1="W" u2="&#x2e;" k="90" />
<hkern u1="W" u2="&#x2d;" k="37" />
<hkern u1="X" u2="&#x2039;" k="35" />
<hkern u1="X" u2="&#xf0;" k="66" />
<hkern u1="X" u2="&#xef;" k="-49" />
<hkern u1="X" u2="&#xec;" k="-53" />
<hkern u1="X" u2="&#xae;" k="23" />
<hkern u1="X" u2="y" k="53" />
<hkern u1="X" u2="w" k="59" />
<hkern u1="X" u2="v" k="53" />
<hkern u1="X" u2="u" k="49" />
<hkern u1="X" u2="t" k="41" />
<hkern u1="X" u2="q" k="74" />
<hkern u1="X" u2="o" k="74" />
<hkern u1="X" u2="n" k="16" />
<hkern u1="X" u2="f" k="31" />
<hkern u1="X" u2="d" k="74" />
<hkern u1="X" u2="a" k="25" />
<hkern u1="X" u2="S" k="12" />
<hkern u1="X" u2="O" k="59" />
<hkern u1="X" u2="&#x2d;" k="55" />
<hkern u1="Y" u2="&#x2122;" k="-43" />
<hkern u1="Y" u2="&#x203a;" k="51" />
<hkern u1="Y" u2="&#x2039;" k="94" />
<hkern u1="Y" u2="&#xf0;" k="68" />
<hkern u1="Y" u2="&#xef;" k="-129" />
<hkern u1="Y" u2="&#xee;" k="-80" />
<hkern u1="Y" u2="&#xed;" k="25" />
<hkern u1="Y" u2="&#xec;" k="-131" />
<hkern u1="Y" u2="&#xdf;" k="31" />
<hkern u1="Y" u2="&#xc6;" k="109" />
<hkern u1="Y" u2="&#xae;" k="25" />
<hkern u1="Y" u2="z" k="76" />
<hkern u1="Y" u2="y" k="12" />
<hkern u1="Y" u2="x" k="31" />
<hkern u1="Y" u2="w" k="20" />
<hkern u1="Y" u2="v" k="12" />
<hkern u1="Y" u2="u" k="82" />
<hkern u1="Y" u2="t" k="14" />
<hkern u1="Y" u2="s" k="98" />
<hkern u1="Y" u2="q" k="106" />
<hkern u1="Y" u2="o" k="109" />
<hkern u1="Y" u2="n" k="84" />
<hkern u1="Y" u2="f" k="27" />
<hkern u1="Y" u2="d" k="104" />
<hkern u1="Y" u2="a" k="92" />
<hkern u1="Y" u2="]" k="-12" />
<hkern u1="Y" u2="S" k="23" />
<hkern u1="Y" u2="O" k="51" />
<hkern u1="Y" u2="J" k="20" />
<hkern u1="Y" u2="A" k="100" />
<hkern u1="Y" u2="&#x40;" k="49" />
<hkern u1="Y" u2="&#x3a;" k="70" />
<hkern u1="Y" u2="&#x34;" k="57" />
<hkern u1="Y" u2="&#x31;" k="-33" />
<hkern u1="Y" u2="&#x2f;" k="102" />
<hkern u1="Y" u2="&#x2e;" k="111" />
<hkern u1="Y" u2="&#x2d;" k="78" />
<hkern u1="Y" u2="&#x26;" k="31" />
<hkern u1="Z" u2="&#xf0;" k="27" />
<hkern u1="Z" u2="&#xee;" k="-29" />
<hkern u1="Z" u2="y" k="16" />
<hkern u1="Z" u2="w" k="18" />
<hkern u1="Z" u2="v" k="14" />
<hkern u1="Z" u2="u" k="23" />
<hkern u1="Z" u2="t" k="23" />
<hkern u1="Z" u2="q" k="29" />
<hkern u1="Z" u2="o" k="31" />
<hkern u1="Z" u2="n" k="16" />
<hkern u1="Z" u2="f" k="23" />
<hkern u1="Z" u2="d" k="31" />
<hkern u1="Z" u2="a" k="12" />
<hkern u1="Z" u2="O" k="29" />
<hkern u1="Z" u2="&#x2d;" k="25" />
<hkern u1="[" u2="&#xf0;" k="31" />
<hkern u1="[" u2="&#xef;" k="-35" />
<hkern u1="[" u2="&#xee;" k="-35" />
<hkern u1="[" u2="&#xec;" k="-102" />
<hkern u1="[" u2="u" k="33" />
<hkern u1="[" u2="s" k="27" />
<hkern u1="[" u2="q" k="51" />
<hkern u1="[" u2="o" k="51" />
<hkern u1="[" u2="j" k="-193" />
<hkern u1="[" u2="d" k="51" />
<hkern u1="[" u2="a" k="35" />
<hkern u1="[" u2="Y" k="-12" />
<hkern u1="[" u2="S" k="20" />
<hkern u1="[" u2="O" k="43" />
<hkern u1="[" u2="&#x38;" k="20" />
<hkern u1="[" u2="&#x36;" k="33" />
<hkern u1="[" u2="&#x34;" k="49" />
<hkern u1="[" u2="&#x30;" k="33" />
<hkern u1="\" u2="&#x2019;" k="117" />
<hkern u1="\" u2="&#xc6;" k="-49" />
<hkern u1="\" u2="y" k="47" />
<hkern u1="\" u2="w" k="39" />
<hkern u1="\" u2="v" k="47" />
<hkern u1="\" u2="t" k="23" />
<hkern u1="\" u2="Y" k="78" />
<hkern u1="\" u2="W" k="63" />
<hkern u1="\" u2="V" k="80" />
<hkern u1="\" u2="U" k="25" />
<hkern u1="\" u2="T" k="78" />
<hkern u1="\" u2="O" k="23" />
<hkern u1="\" u2="A" k="-27" />
<hkern u1="\" u2="&#x31;" k="39" />
<hkern u1="\" u2="&#x27;" k="100" />
<hkern u1="a" u2="&#x2122;" k="41" />
<hkern u1="a" u2="&#x2019;" k="16" />
<hkern u1="a" u2="&#x2018;" k="16" />
<hkern u1="a" u2="y" k="14" />
<hkern u1="a" u2="w" k="16" />
<hkern u1="a" u2="v" k="14" />
<hkern u1="a" u2="t" k="12" />
<hkern u1="a" u2="f" k="8" />
<hkern u1="a" u2="\" k="68" />
<hkern u1="a" u2="Z" k="23" />
<hkern u1="a" u2="Y" k="84" />
<hkern u1="a" u2="X" k="14" />
<hkern u1="a" u2="W" k="59" />
<hkern u1="a" u2="V" k="76" />
<hkern u1="a" u2="U" k="23" />
<hkern u1="a" u2="T" k="100" />
<hkern u1="a" u2="S" k="12" />
<hkern u1="a" u2="O" k="14" />
<hkern u1="a" u2="J" k="16" />
<hkern u1="a" u2="I" k="10" />
<hkern u1="a" u2="&#x29;" k="31" />
<hkern u1="b" u2="&#x2122;" k="47" />
<hkern u1="b" u2="&#x2019;" k="43" />
<hkern u1="b" u2="&#x2018;" k="43" />
<hkern u1="b" u2="&#xc6;" k="25" />
<hkern u1="b" u2="&#x7d;" k="29" />
<hkern u1="b" u2="z" k="14" />
<hkern u1="b" u2="y" k="23" />
<hkern u1="b" u2="x" k="45" />
<hkern u1="b" u2="w" k="18" />
<hkern u1="b" u2="v" k="23" />
<hkern u1="b" u2="t" k="18" />
<hkern u1="b" u2="s" k="10" />
<hkern u1="b" u2="f" k="16" />
<hkern u1="b" u2="]" k="51" />
<hkern u1="b" u2="\" k="74" />
<hkern u1="b" u2="Z" k="47" />
<hkern u1="b" u2="Y" k="104" />
<hkern u1="b" u2="X" k="72" />
<hkern u1="b" u2="W" k="80" />
<hkern u1="b" u2="V" k="94" />
<hkern u1="b" u2="U" k="20" />
<hkern u1="b" u2="T" k="119" />
<hkern u1="b" u2="S" k="23" />
<hkern u1="b" u2="J" k="35" />
<hkern u1="b" u2="I" k="20" />
<hkern u1="b" u2="A" k="27" />
<hkern u1="b" u2="&#x2f;" k="41" />
<hkern u1="b" u2="&#x2a;" k="23" />
<hkern u1="b" u2="&#x29;" k="53" />
<hkern u1="b" u2="&#x27;" k="23" />
<hkern u1="c" u2="&#x2122;" k="25" />
<hkern u1="c" u2="&#x2039;" k="20" />
<hkern u1="c" u2="&#xf0;" k="23" />
<hkern u1="c" u2="q" k="16" />
<hkern u1="c" u2="o" k="18" />
<hkern u1="c" u2="d" k="16" />
<hkern u1="c" u2="]" k="20" />
<hkern u1="c" u2="\" k="45" />
<hkern u1="c" u2="Y" k="86" />
<hkern u1="c" u2="X" k="10" />
<hkern u1="c" u2="W" k="43" />
<hkern u1="c" u2="V" k="55" />
<hkern u1="c" u2="U" k="16" />
<hkern u1="c" u2="T" k="106" />
<hkern u1="c" u2="S" k="12" />
<hkern u1="c" u2="O" k="20" />
<hkern u1="c" u2="&#x2d;" k="20" />
<hkern u1="c" u2="&#x29;" k="29" />
<hkern u1="d" u2="&#xec;" k="-31" />
<hkern u1="d" u2="Z" k="12" />
<hkern u1="d" u2="U" k="14" />
<hkern u1="d" u2="T" k="10" />
<hkern u1="d" u2="O" k="12" />
<hkern u1="d" u2="J" k="18" />
<hkern u1="d" u2="I" k="10" />
<hkern u1="e" u2="&#x2122;" k="35" />
<hkern u1="e" u2="&#x2019;" k="20" />
<hkern u1="e" u2="&#x2018;" k="20" />
<hkern u1="e" u2="&#xc6;" k="14" />
<hkern u1="e" u2="&#x7d;" k="20" />
<hkern u1="e" u2="z" k="10" />
<hkern u1="e" u2="y" k="16" />
<hkern u1="e" u2="x" k="31" />
<hkern u1="e" u2="w" k="10" />
<hkern u1="e" u2="v" k="16" />
<hkern u1="e" u2="t" k="12" />
<hkern u1="e" u2="f" k="10" />
<hkern u1="e" u2="]" k="43" />
<hkern u1="e" u2="\" k="66" />
<hkern u1="e" u2="Z" k="33" />
<hkern u1="e" u2="Y" k="100" />
<hkern u1="e" u2="X" k="47" />
<hkern u1="e" u2="W" k="78" />
<hkern u1="e" u2="V" k="96" />
<hkern u1="e" u2="U" k="14" />
<hkern u1="e" u2="T" k="141" />
<hkern u1="e" u2="S" k="16" />
<hkern u1="e" u2="J" k="27" />
<hkern u1="e" u2="I" k="14" />
<hkern u1="e" u2="A" k="18" />
<hkern u1="e" u2="&#x2f;" k="35" />
<hkern u1="e" u2="&#x29;" k="47" />
<hkern u1="f" u2="&#x2122;" k="-63" />
<hkern u1="f" u2="&#x2039;" k="43" />
<hkern u1="f" u2="&#xf0;" k="51" />
<hkern u1="f" u2="&#xef;" k="-164" />
<hkern u1="f" u2="&#xee;" k="-106" />
<hkern u1="f" u2="&#xec;" k="-172" />
<hkern u1="f" u2="&#xc6;" k="88" />
<hkern u1="f" u2="&#x7d;" k="-20" />
<hkern u1="f" u2="s" k="12" />
<hkern u1="f" u2="q" k="25" />
<hkern u1="f" u2="o" k="27" />
<hkern u1="f" u2="d" k="23" />
<hkern u1="f" u2="a" k="12" />
<hkern u1="f" u2="]" k="-39" />
<hkern u1="f" u2="\" k="-27" />
<hkern u1="f" u2="Y" k="-135" />
<hkern u1="f" u2="X" k="-61" />
<hkern u1="f" u2="W" k="-104" />
<hkern u1="f" u2="V" k="-123" />
<hkern u1="f" u2="T" k="-59" />
<hkern u1="f" u2="J" k="14" />
<hkern u1="f" u2="A" k="82" />
<hkern u1="f" u2="&#x2f;" k="55" />
<hkern u1="f" u2="&#x2e;" k="57" />
<hkern u1="f" u2="&#x2d;" k="29" />
<hkern u1="f" u2="&#x2a;" k="-12" />
<hkern u1="f" u2="&#x29;" k="-25" />
<hkern u1="g" u2="j" k="-14" />
<hkern u1="i" u2="&#xec;" k="-35" />
<hkern u1="i" u2="Z" k="14" />
<hkern u1="i" u2="U" k="12" />
<hkern u1="i" u2="T" k="10" />
<hkern u1="i" u2="O" k="12" />
<hkern u1="i" u2="J" k="18" />
<hkern u1="i" u2="I" k="10" />
<hkern u1="j" u2="j" k="-61" />
<hkern u1="k" u2="&#x2039;" k="41" />
<hkern u1="k" u2="&#xf0;" k="63" />
<hkern u1="k" u2="s" k="23" />
<hkern u1="k" u2="q" k="55" />
<hkern u1="k" u2="o" k="57" />
<hkern u1="k" u2="d" k="53" />
<hkern u1="k" u2="a" k="29" />
<hkern u1="k" u2="Y" k="23" />
<hkern u1="k" u2="V" k="10" />
<hkern u1="k" u2="T" k="135" />
<hkern u1="k" u2="S" k="12" />
<hkern u1="k" u2="O" k="45" />
<hkern u1="k" u2="&#x2d;" k="51" />
<hkern u1="k" u2="&#x2a;" k="-27" />
<hkern u1="l" u2="&#xec;" k="-31" />
<hkern u1="l" u2="&#xb7;" k="152" />
<hkern u1="l" u2="Z" k="12" />
<hkern u1="l" u2="U" k="14" />
<hkern u1="l" u2="T" k="10" />
<hkern u1="l" u2="O" k="12" />
<hkern u1="l" u2="J" k="18" />
<hkern u1="l" u2="I" k="10" />
<hkern u1="n" u2="&#x2122;" k="43" />
<hkern u1="n" u2="&#x2019;" k="20" />
<hkern u1="n" u2="&#x2018;" k="20" />
<hkern u1="n" u2="y" k="18" />
<hkern u1="n" u2="w" k="18" />
<hkern u1="n" u2="v" k="18" />
<hkern u1="n" u2="t" k="16" />
<hkern u1="n" u2="f" k="10" />
<hkern u1="n" u2="\" k="72" />
<hkern u1="n" u2="Z" k="25" />
<hkern u1="n" u2="Y" k="84" />
<hkern u1="n" u2="X" k="14" />
<hkern u1="n" u2="W" k="59" />
<hkern u1="n" u2="V" k="76" />
<hkern u1="n" u2="U" k="23" />
<hkern u1="n" u2="T" k="102" />
<hkern u1="n" u2="S" k="12" />
<hkern u1="n" u2="O" k="14" />
<hkern u1="n" u2="J" k="16" />
<hkern u1="n" u2="I" k="10" />
<hkern u1="n" u2="&#x29;" k="31" />
<hkern u1="o" u2="&#x2122;" k="43" />
<hkern u1="o" u2="&#x2019;" k="35" />
<hkern u1="o" u2="&#x2018;" k="35" />
<hkern u1="o" u2="&#xc6;" k="25" />
<hkern u1="o" u2="&#x7d;" k="29" />
<hkern u1="o" u2="z" k="14" />
<hkern u1="o" u2="y" k="27" />
<hkern u1="o" u2="x" k="45" />
<hkern u1="o" u2="w" k="20" />
<hkern u1="o" u2="v" k="25" />
<hkern u1="o" u2="t" k="20" />
<hkern u1="o" u2="s" k="10" />
<hkern u1="o" u2="f" k="18" />
<hkern u1="o" u2="]" k="51" />
<hkern u1="o" u2="\" k="74" />
<hkern u1="o" u2="Z" k="47" />
<hkern u1="o" u2="Y" k="109" />
<hkern u1="o" u2="X" k="74" />
<hkern u1="o" u2="W" k="84" />
<hkern u1="o" u2="V" k="94" />
<hkern u1="o" u2="U" k="20" />
<hkern u1="o" u2="T" k="123" />
<hkern u1="o" u2="S" k="25" />
<hkern u1="o" u2="J" k="35" />
<hkern u1="o" u2="I" k="20" />
<hkern u1="o" u2="A" k="27" />
<hkern u1="o" u2="&#x2f;" k="41" />
<hkern u1="o" u2="&#x2a;" k="16" />
<hkern u1="o" u2="&#x29;" k="53" />
<hkern u1="p" u2="&#x2122;" k="43" />
<hkern u1="p" u2="&#x2019;" k="31" />
<hkern u1="p" u2="&#x2018;" k="31" />
<hkern u1="p" u2="&#xc6;" k="23" />
<hkern u1="p" u2="&#x7d;" k="31" />
<hkern u1="p" u2="z" k="14" />
<hkern u1="p" u2="y" k="23" />
<hkern u1="p" u2="x" k="43" />
<hkern u1="p" u2="w" k="18" />
<hkern u1="p" u2="v" k="23" />
<hkern u1="p" u2="t" k="18" />
<hkern u1="p" u2="s" k="10" />
<hkern u1="p" u2="f" k="16" />
<hkern u1="p" u2="]" k="51" />
<hkern u1="p" u2="\" k="74" />
<hkern u1="p" u2="Z" k="47" />
<hkern u1="p" u2="Y" k="104" />
<hkern u1="p" u2="X" k="68" />
<hkern u1="p" u2="W" k="80" />
<hkern u1="p" u2="V" k="94" />
<hkern u1="p" u2="U" k="20" />
<hkern u1="p" u2="T" k="119" />
<hkern u1="p" u2="S" k="23" />
<hkern u1="p" u2="J" k="33" />
<hkern u1="p" u2="I" k="18" />
<hkern u1="p" u2="A" k="25" />
<hkern u1="p" u2="&#x2f;" k="41" />
<hkern u1="p" u2="&#x29;" k="53" />
<hkern u1="q" u2="j" k="-141" />
<hkern u1="r" u2="&#x2039;" k="41" />
<hkern u1="r" u2="&#xf0;" k="39" />
<hkern u1="r" u2="&#xc6;" k="92" />
<hkern u1="r" u2="s" k="8" />
<hkern u1="r" u2="q" k="14" />
<hkern u1="r" u2="o" k="16" />
<hkern u1="r" u2="d" k="14" />
<hkern u1="r" u2="a" k="10" />
<hkern u1="r" u2="]" k="27" />
<hkern u1="r" u2="Z" k="25" />
<hkern u1="r" u2="Y" k="12" />
<hkern u1="r" u2="X" k="63" />
<hkern u1="r" u2="T" k="129" />
<hkern u1="r" u2="J" k="74" />
<hkern u1="r" u2="I" k="10" />
<hkern u1="r" u2="A" k="94" />
<hkern u1="r" u2="&#x2f;" k="80" />
<hkern u1="r" u2="&#x2e;" k="84" />
<hkern u1="r" u2="&#x29;" k="35" />
<hkern u1="r" u2="&#x26;" k="20" />
<hkern u1="s" u2="&#x2122;" k="31" />
<hkern u1="s" u2="y" k="10" />
<hkern u1="s" u2="x" k="14" />
<hkern u1="s" u2="v" k="8" />
<hkern u1="s" u2="t" k="8" />
<hkern u1="s" u2="]" k="35" />
<hkern u1="s" u2="\" k="55" />
<hkern u1="s" u2="Z" k="12" />
<hkern u1="s" u2="Y" k="96" />
<hkern u1="s" u2="X" k="25" />
<hkern u1="s" u2="W" k="55" />
<hkern u1="s" u2="V" k="68" />
<hkern u1="s" u2="U" k="20" />
<hkern u1="s" u2="T" k="111" />
<hkern u1="s" u2="O" k="14" />
<hkern u1="s" u2="J" k="10" />
<hkern u1="s" u2="I" k="14" />
<hkern u1="s" u2="A" k="12" />
<hkern u1="s" u2="&#x2f;" k="23" />
<hkern u1="s" u2="&#x29;" k="41" />
<hkern u1="t" u2="&#x2122;" k="20" />
<hkern u1="t" u2="&#xf0;" k="8" />
<hkern u1="t" u2="q" k="10" />
<hkern u1="t" u2="o" k="12" />
<hkern u1="t" u2="d" k="10" />
<hkern u1="t" u2="\" k="37" />
<hkern u1="t" u2="Y" k="70" />
<hkern u1="t" u2="W" k="37" />
<hkern u1="t" u2="V" k="45" />
<hkern u1="t" u2="U" k="18" />
<hkern u1="t" u2="T" k="47" />
<hkern u1="t" u2="O" k="16" />
<hkern u1="u" u2="&#x2122;" k="16" />
<hkern u1="u" u2="\" k="39" />
<hkern u1="u" u2="Z" k="16" />
<hkern u1="u" u2="Y" k="84" />
<hkern u1="u" u2="X" k="16" />
<hkern u1="u" u2="W" k="47" />
<hkern u1="u" u2="V" k="57" />
<hkern u1="u" u2="U" k="16" />
<hkern u1="u" u2="T" k="43" />
<hkern u1="u" u2="S" k="10" />
<hkern u1="u" u2="O" k="12" />
<hkern u1="u" u2="J" k="18" />
<hkern u1="u" u2="I" k="10" />
<hkern u1="u" u2="&#x29;" k="29" />
<hkern u1="v" u2="&#x2039;" k="35" />
<hkern u1="v" u2="&#xf0;" k="39" />
<hkern u1="v" u2="&#xc6;" k="72" />
<hkern u1="v" u2="s" k="18" />
<hkern u1="v" u2="q" k="23" />
<hkern u1="v" u2="o" k="25" />
<hkern u1="v" u2="d" k="23" />
<hkern u1="v" u2="a" k="14" />
<hkern u1="v" u2="Y" k="12" />
<hkern u1="v" u2="X" k="51" />
<hkern u1="v" u2="T" k="133" />
<hkern u1="v" u2="J" k="43" />
<hkern u1="v" u2="A" k="63" />
<hkern u1="v" u2="&#x2f;" k="78" />
<hkern u1="v" u2="&#x2e;" k="68" />
<hkern u1="v" u2="&#x29;" k="23" />
<hkern u1="w" u2="&#x2039;" k="27" />
<hkern u1="w" u2="&#xf0;" k="35" />
<hkern u1="w" u2="&#xc6;" k="66" />
<hkern u1="w" u2="s" k="16" />
<hkern u1="w" u2="q" k="18" />
<hkern u1="w" u2="o" k="20" />
<hkern u1="w" u2="d" k="18" />
<hkern u1="w" u2="a" k="12" />
<hkern u1="w" u2="Z" k="12" />
<hkern u1="w" u2="Y" k="20" />
<hkern u1="w" u2="X" k="57" />
<hkern u1="w" u2="T" k="125" />
<hkern u1="w" u2="J" k="51" />
<hkern u1="w" u2="A" k="57" />
<hkern u1="w" u2="&#x2f;" k="70" />
<hkern u1="w" u2="&#x2e;" k="53" />
<hkern u1="w" u2="&#x29;" k="29" />
<hkern u1="x" u2="&#x2039;" k="43" />
<hkern u1="x" u2="&#xf0;" k="53" />
<hkern u1="x" u2="s" k="12" />
<hkern u1="x" u2="q" k="49" />
<hkern u1="x" u2="o" k="51" />
<hkern u1="x" u2="d" k="47" />
<hkern u1="x" u2="a" k="20" />
<hkern u1="x" u2="Y" k="29" />
<hkern u1="x" u2="V" k="14" />
<hkern u1="x" u2="U" k="12" />
<hkern u1="x" u2="T" k="131" />
<hkern u1="x" u2="O" k="35" />
<hkern u1="x" u2="&#x2d;" k="45" />
<hkern u1="y" u2="&#x2039;" k="35" />
<hkern u1="y" u2="&#xf0;" k="39" />
<hkern u1="y" u2="&#xc6;" k="72" />
<hkern u1="y" u2="s" k="20" />
<hkern u1="y" u2="q" k="25" />
<hkern u1="y" u2="o" k="27" />
<hkern u1="y" u2="d" k="23" />
<hkern u1="y" u2="a" k="16" />
<hkern u1="y" u2="Y" k="12" />
<hkern u1="y" u2="X" k="51" />
<hkern u1="y" u2="T" k="135" />
<hkern u1="y" u2="J" k="47" />
<hkern u1="y" u2="A" k="63" />
<hkern u1="y" u2="&#x2f;" k="72" />
<hkern u1="y" u2="&#x2e;" k="70" />
<hkern u1="y" u2="&#x2a;" k="-33" />
<hkern u1="y" u2="&#x29;" k="23" />
<hkern u1="z" u2="&#x2122;" k="16" />
<hkern u1="z" u2="&#x2039;" k="23" />
<hkern u1="z" u2="&#xf0;" k="16" />
<hkern u1="z" u2="q" k="14" />
<hkern u1="z" u2="o" k="14" />
<hkern u1="z" u2="d" k="14" />
<hkern u1="z" u2="\" k="37" />
<hkern u1="z" u2="Y" k="72" />
<hkern u1="z" u2="W" k="37" />
<hkern u1="z" u2="V" k="45" />
<hkern u1="z" u2="U" k="20" />
<hkern u1="z" u2="T" k="143" />
<hkern u1="z" u2="O" k="14" />
<hkern u1="z" u2="I" k="12" />
<hkern u1="z" u2="&#x2d;" k="20" />
<hkern u1="&#x7b;" u2="&#xef;" k="-14" />
<hkern u1="&#x7b;" u2="&#xee;" k="-31" />
<hkern u1="&#x7b;" u2="&#xec;" k="-82" />
<hkern u1="&#x7b;" u2="q" k="31" />
<hkern u1="&#x7b;" u2="o" k="29" />
<hkern u1="&#x7b;" u2="j" k="-182" />
<hkern u1="&#x7b;" u2="d" k="29" />
<hkern u1="&#x7b;" u2="O" k="20" />
<hkern u1="&#x7c;" u2="&#xec;" k="-27" />
<hkern u1="&#x7c;" u2="j" k="-133" />
<hkern u1="&#x7d;" u2="&#x29;" k="20" />
<hkern u1="&#xae;" u2="&#xc6;" k="23" />
<hkern u1="&#xae;" u2="Y" k="25" />
<hkern u1="&#xae;" u2="X" k="25" />
<hkern u1="&#xae;" u2="A" k="23" />
<hkern u1="&#xb0;" u2="&#x34;" k="43" />
<hkern u1="&#xb7;" u2="l" k="152" />
<hkern u1="&#xb7;" u2="&#x37;" k="31" />
<hkern u1="&#xb7;" u2="&#x33;" k="45" />
<hkern u1="&#xb7;" u2="&#x32;" k="43" />
<hkern u1="&#xb7;" u2="&#x31;" k="49" />
<hkern u1="&#xbf;" u2="Y" k="35" />
<hkern u1="&#xbf;" u2="W" k="25" />
<hkern u1="&#xbf;" u2="V" k="33" />
<hkern u1="&#xbf;" u2="T" k="39" />
<hkern u1="&#xde;" u2="&#x2122;" k="18" />
<hkern u1="&#xde;" u2="&#xf0;" k="14" />
<hkern u1="&#xde;" u2="&#xc6;" k="51" />
<hkern u1="&#xde;" u2="z" k="16" />
<hkern u1="&#xde;" u2="x" k="25" />
<hkern u1="&#xde;" u2="s" k="14" />
<hkern u1="&#xde;" u2="n" k="12" />
<hkern u1="&#xde;" u2="l" k="12" />
<hkern u1="&#xde;" u2="i" k="12" />
<hkern u1="&#xde;" u2="h" k="12" />
<hkern u1="&#xde;" u2="a" k="14" />
<hkern u1="&#xde;" u2="]" k="47" />
<hkern u1="&#xde;" u2="\" k="39" />
<hkern u1="&#xde;" u2="Z" k="33" />
<hkern u1="&#xde;" u2="Y" k="57" />
<hkern u1="&#xde;" u2="X" k="72" />
<hkern u1="&#xde;" u2="W" k="25" />
<hkern u1="&#xde;" u2="V" k="35" />
<hkern u1="&#xde;" u2="T" k="37" />
<hkern u1="&#xde;" u2="S" k="10" />
<hkern u1="&#xde;" u2="J" k="53" />
<hkern u1="&#xde;" u2="A" k="49" />
<hkern u1="&#xde;" u2="&#x2f;" k="59" />
<hkern u1="&#xde;" u2="&#x2e;" k="53" />
<hkern u1="&#xde;" u2="&#x29;" k="49" />
<hkern u1="&#xdf;" u2="&#xc6;" k="12" />
<hkern u1="&#xdf;" u2="z" k="8" />
<hkern u1="&#xdf;" u2="y" k="18" />
<hkern u1="&#xdf;" u2="x" k="25" />
<hkern u1="&#xdf;" u2="w" k="14" />
<hkern u1="&#xdf;" u2="v" k="16" />
<hkern u1="&#xdf;" u2="t" k="16" />
<hkern u1="&#xdf;" u2="s" k="10" />
<hkern u1="&#xdf;" u2="f" k="16" />
<hkern u1="&#xdf;" u2="\" k="20" />
<hkern u1="&#xdf;" u2="Z" k="18" />
<hkern u1="&#xdf;" u2="Y" k="37" />
<hkern u1="&#xdf;" u2="X" k="37" />
<hkern u1="&#xdf;" u2="W" k="31" />
<hkern u1="&#xdf;" u2="V" k="35" />
<hkern u1="&#xdf;" u2="U" k="20" />
<hkern u1="&#xdf;" u2="T" k="33" />
<hkern u1="&#xdf;" u2="S" k="14" />
<hkern u1="&#xdf;" u2="O" k="12" />
<hkern u1="&#xdf;" u2="J" k="16" />
<hkern u1="&#xdf;" u2="I" k="18" />
<hkern u1="&#xdf;" u2="A" k="16" />
<hkern u1="&#xdf;" u2="&#x2f;" k="29" />
<hkern u1="&#xdf;" u2="&#x29;" k="31" />
<hkern u1="&#xed;" u2="&#x2122;" k="-74" />
<hkern u1="&#xed;" u2="&#x7d;" k="-96" />
<hkern u1="&#xed;" u2="&#x7c;" k="-41" />
<hkern u1="&#xed;" u2="l" k="-45" />
<hkern u1="&#xed;" u2="i" k="-43" />
<hkern u1="&#xed;" u2="h" k="-45" />
<hkern u1="&#xed;" u2="]" k="-117" />
<hkern u1="&#xed;" u2="\" k="-111" />
<hkern u1="&#xed;" u2="&#x2a;" k="-14" />
<hkern u1="&#xed;" u2="&#x29;" k="-106" />
<hkern u1="&#xee;" u2="&#x2122;" k="-88" />
<hkern u1="&#xee;" u2="&#x7d;" k="-29" />
<hkern u1="&#xee;" u2="]" k="-33" />
<hkern u1="&#xee;" u2="&#x2a;" k="-57" />
<hkern u1="&#xef;" u2="&#x2122;" k="-59" />
<hkern u1="&#xef;" u2="&#x7d;" k="-16" />
<hkern u1="&#xef;" u2="]" k="-37" />
<hkern u1="&#xef;" u2="\" k="-16" />
<hkern u1="&#xef;" u2="&#x2a;" k="-23" />
<hkern u1="&#xef;" u2="&#x29;" k="-25" />
<hkern u1="&#xf0;" u2="&#x2122;" k="20" />
<hkern u1="&#xf0;" u2="&#x2019;" k="23" />
<hkern u1="&#xf0;" u2="&#x2018;" k="23" />
<hkern u1="&#xf0;" u2="&#xc6;" k="20" />
<hkern u1="&#xf0;" u2="z" k="10" />
<hkern u1="&#xf0;" u2="y" k="18" />
<hkern u1="&#xf0;" u2="x" k="35" />
<hkern u1="&#xf0;" u2="w" k="14" />
<hkern u1="&#xf0;" u2="v" k="16" />
<hkern u1="&#xf0;" u2="t" k="14" />
<hkern u1="&#xf0;" u2="s" k="8" />
<hkern u1="&#xf0;" u2="f" k="14" />
<hkern u1="&#xf0;" u2="]" k="33" />
<hkern u1="&#xf0;" u2="\" k="29" />
<hkern u1="&#xf0;" u2="Z" k="57" />
<hkern u1="&#xf0;" u2="Y" k="68" />
<hkern u1="&#xf0;" u2="X" k="66" />
<hkern u1="&#xf0;" u2="W" k="53" />
<hkern u1="&#xf0;" u2="V" k="59" />
<hkern u1="&#xf0;" u2="U" k="20" />
<hkern u1="&#xf0;" u2="T" k="90" />
<hkern u1="&#xf0;" u2="S" k="18" />
<hkern u1="&#xf0;" u2="J" k="31" />
<hkern u1="&#xf0;" u2="I" k="16" />
<hkern u1="&#xf0;" u2="A" k="23" />
<hkern u1="&#xf0;" u2="&#x2f;" k="37" />
<hkern u1="&#xf0;" u2="&#x29;" k="37" />
<hkern u1="&#x2018;" u2="&#xf0;" k="27" />
<hkern u1="&#x2018;" u2="&#xef;" k="-27" />
<hkern u1="&#x2018;" u2="&#xec;" k="-29" />
<hkern u1="&#x2018;" u2="&#xc6;" k="125" />
<hkern u1="&#x2018;" u2="s" k="43" />
<hkern u1="&#x2018;" u2="q" k="55" />
<hkern u1="&#x2018;" u2="o" k="59" />
<hkern u1="&#x2018;" u2="d" k="68" />
<hkern u1="&#x2018;" u2="a" k="27" />
<hkern u1="&#x2018;" u2="O" k="18" />
<hkern u1="&#x2018;" u2="J" k="27" />
<hkern u1="&#x2018;" u2="A" k="115" />
<hkern u1="&#x2018;" u2="&#x2e;" k="287" />
<hkern u1="&#x2019;" u2="&#x2039;" k="45" />
<hkern u1="&#x2019;" u2="&#xf0;" k="27" />
<hkern u1="&#x2019;" u2="&#xef;" k="-27" />
<hkern u1="&#x2019;" u2="&#xec;" k="-29" />
<hkern u1="&#x2019;" u2="&#xc6;" k="125" />
<hkern u1="&#x2019;" u2="s" k="43" />
<hkern u1="&#x2019;" u2="q" k="55" />
<hkern u1="&#x2019;" u2="o" k="59" />
<hkern u1="&#x2019;" u2="d" k="68" />
<hkern u1="&#x2019;" u2="a" k="27" />
<hkern u1="&#x2019;" u2="O" k="18" />
<hkern u1="&#x2019;" u2="J" k="27" />
<hkern u1="&#x2019;" u2="A" k="115" />
<hkern u1="&#x2019;" u2="&#x40;" k="49" />
<hkern u1="&#x2019;" u2="&#x3a;" k="47" />
<hkern u1="&#x2019;" u2="&#x2f;" k="164" />
<hkern u1="&#x2019;" u2="&#x2e;" k="287" />
<hkern u1="&#x2019;" u2="&#x26;" k="41" />
<hkern u1="&#x2039;" u2="Y" k="51" />
<hkern u1="&#x2039;" u2="V" k="31" />
<hkern u1="&#x2039;" u2="T" k="98" />
<hkern u1="&#x203a;" u2="z" k="20" />
<hkern u1="&#x203a;" u2="y" k="35" />
<hkern u1="&#x203a;" u2="x" k="43" />
<hkern u1="&#x203a;" u2="w" k="27" />
<hkern u1="&#x203a;" u2="v" k="35" />
<hkern u1="&#x203a;" u2="t" k="23" />
<hkern u1="&#x203a;" u2="f" k="20" />
<hkern u1="&#x203a;" u2="Z" k="20" />
<hkern u1="&#x203a;" u2="Y" k="94" />
<hkern u1="&#x203a;" u2="X" k="35" />
<hkern u1="&#x203a;" u2="W" k="55" />
<hkern u1="&#x203a;" u2="V" k="70" />
<hkern u1="&#x203a;" u2="T" k="115" />
<hkern u1="&#x203a;" u2="J" k="23" />
<hkern u1="&#x203a;" u2="&#x27;" k="35" />
<hkern u1="&#x2122;" u2="&#xef;" k="-18" />
<hkern u1="&#x2122;" u2="&#xee;" k="-51" />
<hkern u1="&#x2122;" u2="&#xec;" k="-20" />
<hkern u1="&#x2122;" u2="&#xc6;" k="55" />
<hkern u1="&#x2122;" u2="J" k="29" />
<hkern u1="&#x2122;" u2="A" k="49" />
</font>
</defs></svg> 