Country,Country Code,State/Province,State/Province Abb,County,City,Postal Code
United States,US,Massachusetts,MA,Barnstable County,Barnstable,02630
United States,US,Massachusetts,MA,Barnstable County,Brewster,02631
United States,US,Massachusetts,MA,Barnstable County,Buzzards Bay,02532
United States,US,Massachusetts,MA,Barnstable County,Buzzards Bay,02542
United States,US,Massachusetts,MA,Barnstable County,Centerville,02632
United States,US,Massachusetts,MA,Barnstable County,Centerville,02636
United States,US,Massachusetts,MA,Barnstable County,Chatham,02633
United States,US,Massachusetts,MA,Barnstable County,Cotuit,02635
United States,US,Massachusetts,MA,Barnstable County,Dennis,02638
United States,US,Massachusetts,MA,Barnstable County,Dennis Port,02639
United States,US,Massachusetts,MA,Barnstable County,East Falmouth,02536
United States,US,Massachusetts,MA,Barnstable County,East Sandwich,02537
United States,US,Massachusetts,MA,Barnstable County,Eastham,02642
United States,US,Massachusetts,MA,Barnstable County,Falmouth,02540
United States,US,Massachusetts,MA,Barnstable County,Forestdale,02644
United States,US,Massachusetts,MA,Barnstable County,Harwich,02645
United States,US,Massachusetts,MA,Barnstable County,Harwich Port,02646
United States,US,Massachusetts,MA,Barnstable County,Hyannis,02601
United States,US,Massachusetts,MA,Barnstable County,Marstons Mills,02648
United States,US,Massachusetts,MA,Barnstable County,Mashpee,02649
United States,US,Massachusetts,MA,Barnstable County,North Chatham,02650
United States,US,Massachusetts,MA,Barnstable County,North Falmouth,02556
United States,US,Massachusetts,MA,Barnstable County,Orleans,02653
United States,US,Massachusetts,MA,Barnstable County,Osterville,02655
United States,US,Massachusetts,MA,Barnstable County,Pocasset,02559
United States,US,Massachusetts,MA,Barnstable County,Provincetown,02657
United States,US,Massachusetts,MA,Barnstable County,Sagamore Beach,02562
United States,US,Massachusetts,MA,Barnstable County,Sandwich,02563
United States,US,Massachusetts,MA,Barnstable County,South Chatham,02659
United States,US,Massachusetts,MA,Barnstable County,South Dennis,02660
United States,US,Massachusetts,MA,Barnstable County,South Yarmouth,02664
United States,US,Massachusetts,MA,Barnstable County,Wellfleet,02667
United States,US,Massachusetts,MA,Barnstable County,West Barnstable,02668
United States,US,Massachusetts,MA,Barnstable County,West Dennis,02670
United States,US,Massachusetts,MA,Barnstable County,West Harwich,02671
United States,US,Massachusetts,MA,Barnstable County,West Yarmouth,02673
United States,US,Massachusetts,MA,Barnstable County,Woods Hole,02543
United States,US,Massachusetts,MA,Barnstable County,Yarmouth Port,02675
United States,US,Massachusetts,MA,Berkshire County,Adams,01220
United States,US,Massachusetts,MA,Berkshire County,Ashley Falls,01222
United States,US,Massachusetts,MA,Berkshire County,Becket,01223
United States,US,Massachusetts,MA,Berkshire County,Berkshire,01224
United States,US,Massachusetts,MA,Berkshire County,Cheshire,01225
United States,US,Massachusetts,MA,Berkshire County,Dalton,01226
United States,US,Massachusetts,MA,Berkshire County,Drury,01343
United States,US,Massachusetts,MA,Berkshire County,Great Barrington,01230
United States,US,Massachusetts,MA,Berkshire County,Hinsdale,01235
United States,US,Massachusetts,MA,Berkshire County,Housatonic,01236
United States,US,Massachusetts,MA,Berkshire County,Lanesboro,01237
United States,US,Massachusetts,MA,Berkshire County,Lee,01238
United States,US,Massachusetts,MA,Berkshire County,Lenox,01240
United States,US,Massachusetts,MA,Berkshire County,Monterey,01245
United States,US,Massachusetts,MA,Berkshire County,North Adams,01247
United States,US,Massachusetts,MA,Berkshire County,Otis,01253
United States,US,Massachusetts,MA,Berkshire County,Pittsfield,01201
United States,US,Massachusetts,MA,Berkshire County,Richmond,01254
United States,US,Massachusetts,MA,Berkshire County,Sandisfield,01255
United States,US,Massachusetts,MA,Berkshire County,Savoy,01256
United States,US,Massachusetts,MA,Berkshire County,Sheffield,01257
United States,US,Massachusetts,MA,Berkshire County,South Egremont,01258
United States,US,Massachusetts,MA,Berkshire County,Southfield,01259
United States,US,Massachusetts,MA,Berkshire County,West Stockbridge,01266
United States,US,Massachusetts,MA,Berkshire County,Williamstown,01267
United States,US,Massachusetts,MA,Berkshire County,Windsor,01270
United States,US,Massachusetts,MA,Bristol County,Acushnet,02743
United States,US,Massachusetts,MA,Bristol County,Assonet,02702
United States,US,Massachusetts,MA,Bristol County,Attleboro,02703
United States,US,Massachusetts,MA,Bristol County,Attleboro Falls,02763
United States,US,Massachusetts,MA,Bristol County,Berkley,02779
United States,US,Massachusetts,MA,Bristol County,Dighton,02715
United States,US,Massachusetts,MA,Bristol County,East Freetown,02717
United States,US,Massachusetts,MA,Bristol County,East Mansfield,02031
United States,US,Massachusetts,MA,Bristol County,East Taunton,02718
United States,US,Massachusetts,MA,Bristol County,Fairhaven,02719
United States,US,Massachusetts,MA,Bristol County,Fall River,02720
United States,US,Massachusetts,MA,Bristol County,Fall River,02721
United States,US,Massachusetts,MA,Bristol County,Fall River,02723
United States,US,Massachusetts,MA,Bristol County,Fall River,02724
United States,US,Massachusetts,MA,Bristol County,Mansfield,02048
United States,US,Massachusetts,MA,Bristol County,New Bedford,02740
United States,US,Massachusetts,MA,Bristol County,New Bedford,02744
United States,US,Massachusetts,MA,Bristol County,New Bedford,02745
United States,US,Massachusetts,MA,Bristol County,New Bedford,02746
United States,US,Massachusetts,MA,Bristol County,North Attleboro,02760
United States,US,Massachusetts,MA,Bristol County,North Dartmouth,02747
United States,US,Massachusetts,MA,Bristol County,North Dighton,02764
United States,US,Massachusetts,MA,Bristol County,North Easton,02356
United States,US,Massachusetts,MA,Bristol County,Norton,02766
United States,US,Massachusetts,MA,Bristol County,Raynham,02767
United States,US,Massachusetts,MA,Bristol County,Rehoboth,02769
United States,US,Massachusetts,MA,Bristol County,Seekonk,02771
United States,US,Massachusetts,MA,Bristol County,Somerset,02725
United States,US,Massachusetts,MA,Bristol County,Somerset,02726
United States,US,Massachusetts,MA,Bristol County,South Dartmouth,02748
United States,US,Massachusetts,MA,Bristol County,South Easton,02375
United States,US,Massachusetts,MA,Bristol County,Swansea,02777
United States,US,Massachusetts,MA,Bristol County,Taunton,02780
United States,US,Massachusetts,MA,Bristol County,Westport,02790
United States,US,Massachusetts,MA,Dukes County,Chilmark,02535
United States,US,Massachusetts,MA,Dukes County,Edgartown,02539
United States,US,Massachusetts,MA,Dukes County,Oak Bluffs,02557
United States,US,Massachusetts,MA,Dukes County,Vineyard Haven,02568
United States,US,Massachusetts,MA,Essex County,Amesbury,01913
United States,US,Massachusetts,MA,Essex County,Andover,01810
United States,US,Massachusetts,MA,Essex County,Beverly,01915
United States,US,Massachusetts,MA,Essex County,Boxford,01921
United States,US,Massachusetts,MA,Essex County,Byfield,01922
United States,US,Massachusetts,MA,Essex County,Danvers,01923
United States,US,Massachusetts,MA,Essex County,Essex,01929
United States,US,Massachusetts,MA,Essex County,Georgetown,01833
United States,US,Massachusetts,MA,Essex County,Gloucester,01930
United States,US,Massachusetts,MA,Essex County,Groveland,01834
United States,US,Massachusetts,MA,Essex County,Haverhill,01830
United States,US,Massachusetts,MA,Essex County,Haverhill,01832
United States,US,Massachusetts,MA,Essex County,Haverhill,01835
United States,US,Massachusetts,MA,Essex County,Ipswich,01938
United States,US,Massachusetts,MA,Essex County,Lawrence,01840
United States,US,Massachusetts,MA,Essex County,Lawrence,01841
United States,US,Massachusetts,MA,Essex County,Lawrence,01843
United States,US,Massachusetts,MA,Essex County,Lynn,01901
United States,US,Massachusetts,MA,Essex County,Lynn,01902
United States,US,Massachusetts,MA,Essex County,Lynn,01904
United States,US,Massachusetts,MA,Essex County,Lynn,01905
United States,US,Massachusetts,MA,Essex County,Lynnfield,01940
United States,US,Massachusetts,MA,Essex County,Manchester,01944
United States,US,Massachusetts,MA,Essex County,Marblehead,01945
United States,US,Massachusetts,MA,Essex County,Merrimac,01860
United States,US,Massachusetts,MA,Essex County,Methuen,01844
United States,US,Massachusetts,MA,Essex County,Middleton,01949
United States,US,Massachusetts,MA,Essex County,Nahant,01908
United States,US,Massachusetts,MA,Essex County,Newbury,01951
United States,US,Massachusetts,MA,Essex County,Newburyport,01950
United States,US,Massachusetts,MA,Essex County,North Andover,01845
United States,US,Massachusetts,MA,Essex County,Peabody,01960
United States,US,Massachusetts,MA,Essex County,Rockport,01966
United States,US,Massachusetts,MA,Essex County,Rowley,01969
United States,US,Massachusetts,MA,Essex County,Salem,01970
United States,US,Massachusetts,MA,Essex County,Salisbury,01952
United States,US,Massachusetts,MA,Essex County,Saugus,01906
United States,US,Massachusetts,MA,Essex County,South Hamilton,01982
United States,US,Massachusetts,MA,Essex County,Swampscott,01907
United States,US,Massachusetts,MA,Essex County,Topsfield,01983
United States,US,Massachusetts,MA,Essex County,Wenham,01984
United States,US,Massachusetts,MA,Essex County,West Newbury,01985
United States,US,Massachusetts,MA,Franklin County,Ashfield,01330
United States,US,Massachusetts,MA,Franklin County,Bernardston,01337
United States,US,Massachusetts,MA,Franklin County,Buckland,01338
United States,US,Massachusetts,MA,Franklin County,Charlemont,01339
United States,US,Massachusetts,MA,Franklin County,Colrain,01340
United States,US,Massachusetts,MA,Franklin County,Conway,01341
United States,US,Massachusetts,MA,Franklin County,Deerfield,01342
United States,US,Massachusetts,MA,Franklin County,Erving,01344
United States,US,Massachusetts,MA,Franklin County,Gill,01354
United States,US,Massachusetts,MA,Franklin County,Greenfield,01301
United States,US,Massachusetts,MA,Franklin County,Heath,01346
United States,US,Massachusetts,MA,Franklin County,Leverett,01054
United States,US,Massachusetts,MA,Franklin County,Millers Falls,01349
United States,US,Massachusetts,MA,Franklin County,Montague,01351
United States,US,Massachusetts,MA,Franklin County,New Salem,01355
United States,US,Massachusetts,MA,Franklin County,Northfield,01360
United States,US,Massachusetts,MA,Franklin County,Orange,01364
United States,US,Massachusetts,MA,Franklin County,Rowe,01367
United States,US,Massachusetts,MA,Franklin County,Shelburne Falls,01370
United States,US,Massachusetts,MA,Franklin County,Shutesbury,01072
United States,US,Massachusetts,MA,Franklin County,South Deerfield,01373
United States,US,Massachusetts,MA,Franklin County,Sunderland,01375
United States,US,Massachusetts,MA,Franklin County,Turners Falls,01376
United States,US,Massachusetts,MA,Franklin County,Warwick,01378
United States,US,Massachusetts,MA,Franklin County,Wendell,01379
United States,US,Massachusetts,MA,Franklin County,Wendell Depot,01380
United States,US,Massachusetts,MA,Hampden County,Agawam,01001
United States,US,Massachusetts,MA,Hampden County,Blandford,01008
United States,US,Massachusetts,MA,Hampden County,Brimfield,01010
United States,US,Massachusetts,MA,Hampden County,Chester,01011
United States,US,Massachusetts,MA,Hampden County,Chicopee,01013
United States,US,Massachusetts,MA,Hampden County,Chicopee,01020
United States,US,Massachusetts,MA,Hampden County,Chicopee,01022
United States,US,Massachusetts,MA,Hampden County,East Longmeadow,01028
United States,US,Massachusetts,MA,Hampden County,Feeding Hills,01030
United States,US,Massachusetts,MA,Hampden County,Granville,01034
United States,US,Massachusetts,MA,Hampden County,Hampden,01036
United States,US,Massachusetts,MA,Hampden County,Holland,01521
United States,US,Massachusetts,MA,Hampden County,Holyoke,01040
United States,US,Massachusetts,MA,Hampden County,Indian Orchard,01151
United States,US,Massachusetts,MA,Hampden County,Longmeadow,01106
United States,US,Massachusetts,MA,Hampden County,Ludlow,01056
United States,US,Massachusetts,MA,Hampden County,Monson,01057
United States,US,Massachusetts,MA,Hampden County,Palmer,01069
United States,US,Massachusetts,MA,Hampden County,Russell,01071
United States,US,Massachusetts,MA,Hampden County,Southwick,01077
United States,US,Massachusetts,MA,Hampden County,Springfield,01103
United States,US,Massachusetts,MA,Hampden County,Springfield,01104
United States,US,Massachusetts,MA,Hampden County,Springfield,01105
United States,US,Massachusetts,MA,Hampden County,Springfield,01107
United States,US,Massachusetts,MA,Hampden County,Springfield,01108
United States,US,Massachusetts,MA,Hampden County,Springfield,01109
United States,US,Massachusetts,MA,Hampden County,Springfield,01118
United States,US,Massachusetts,MA,Hampden County,Springfield,01119
United States,US,Massachusetts,MA,Hampden County,Springfield,01128
United States,US,Massachusetts,MA,Hampden County,Springfield,01129
United States,US,Massachusetts,MA,Hampden County,Springfield,01144
United States,US,Massachusetts,MA,Hampden County,Springfield,01152
United States,US,Massachusetts,MA,Hampden County,Springfield,01195
United States,US,Massachusetts,MA,Hampden County,Three Rivers,01080
United States,US,Massachusetts,MA,Hampden County,Wales,01081
United States,US,Massachusetts,MA,Hampden County,West Springfield,01089
United States,US,Massachusetts,MA,Hampden County,Westfield,01085
United States,US,Massachusetts,MA,Hampden County,Wilbraham,01095
United States,US,Massachusetts,MA,Hampshire County,Amherst,01002
United States,US,Massachusetts,MA,Hampshire County,Belchertown,01007
United States,US,Massachusetts,MA,Hampshire County,Chesterfield,01012
United States,US,Massachusetts,MA,Hampshire County,Cummington,01026
United States,US,Massachusetts,MA,Hampshire County,Easthampton,01027
United States,US,Massachusetts,MA,Hampshire County,Florence,01062
United States,US,Massachusetts,MA,Hampshire County,Goshen,01032
United States,US,Massachusetts,MA,Hampshire County,Granby,01033
United States,US,Massachusetts,MA,Hampshire County,Hadley,01035
United States,US,Massachusetts,MA,Hampshire County,Hatfield,01038
United States,US,Massachusetts,MA,Hampshire County,Haydenville,01039
United States,US,Massachusetts,MA,Hampshire County,Huntington,01050
United States,US,Massachusetts,MA,Hampshire County,Leeds,01053
United States,US,Massachusetts,MA,Hampshire County,Northampton,01060
United States,US,Massachusetts,MA,Hampshire County,Plainfield,01070
United States,US,Massachusetts,MA,Hampshire County,South Hadley,01075
United States,US,Massachusetts,MA,Hampshire County,Southampton,01073
United States,US,Massachusetts,MA,Hampshire County,Ware,01082
United States,US,Massachusetts,MA,Hampshire County,West Chesterfield,01084
United States,US,Massachusetts,MA,Hampshire County,West Hatfield,01088
United States,US,Massachusetts,MA,Hampshire County,Williamsburg,01096
United States,US,Massachusetts,MA,Hampshire County,Worthington,01098
United States,US,Massachusetts,MA,Middlesex County,Acton,01720
United States,US,Massachusetts,MA,Middlesex County,Arlington,02474
United States,US,Massachusetts,MA,Middlesex County,Arlington,02476
United States,US,Massachusetts,MA,Middlesex County,Ashby,01431
United States,US,Massachusetts,MA,Middlesex County,Ashland,01721
United States,US,Massachusetts,MA,Middlesex County,Auburndale,02466
United States,US,Massachusetts,MA,Middlesex County,Ayer,01432
United States,US,Massachusetts,MA,Middlesex County,Bedford,01730
United States,US,Massachusetts,MA,Middlesex County,Belmont,02478
United States,US,Massachusetts,MA,Middlesex County,Billerica,01821
United States,US,Massachusetts,MA,Middlesex County,Boxborough,01719
United States,US,Massachusetts,MA,Middlesex County,Burlington,01803
United States,US,Massachusetts,MA,Middlesex County,Cambridge,02138
United States,US,Massachusetts,MA,Middlesex County,Cambridge,02139
United States,US,Massachusetts,MA,Middlesex County,Cambridge,02140
United States,US,Massachusetts,MA,Middlesex County,Cambridge,02141
United States,US,Massachusetts,MA,Middlesex County,Cambridge,02142
United States,US,Massachusetts,MA,Middlesex County,Carlisle,01741
United States,US,Massachusetts,MA,Middlesex County,Chelmsford,01824
United States,US,Massachusetts,MA,Middlesex County,Concord,01742
United States,US,Massachusetts,MA,Middlesex County,Dracut,01826
United States,US,Massachusetts,MA,Middlesex County,Dunstable,01827
United States,US,Massachusetts,MA,Middlesex County,Everett,02149
United States,US,Massachusetts,MA,Middlesex County,Framingham,01701
United States,US,Massachusetts,MA,Middlesex County,Framingham,01702
United States,US,Massachusetts,MA,Middlesex County,Groton,01450
United States,US,Massachusetts,MA,Middlesex County,Hanscom Afb,01731
United States,US,Massachusetts,MA,Middlesex County,Holliston,01746
United States,US,Massachusetts,MA,Middlesex County,Hopkinton,01748
United States,US,Massachusetts,MA,Middlesex County,Hudson,01749
United States,US,Massachusetts,MA,Middlesex County,Lexington,02420
United States,US,Massachusetts,MA,Middlesex County,Lexington,02421
United States,US,Massachusetts,MA,Middlesex County,Lincoln,01773
United States,US,Massachusetts,MA,Middlesex County,Littleton,01460
United States,US,Massachusetts,MA,Middlesex County,Lowell,01850
United States,US,Massachusetts,MA,Middlesex County,Lowell,01851
United States,US,Massachusetts,MA,Middlesex County,Lowell,01852
United States,US,Massachusetts,MA,Middlesex County,Lowell,01854
United States,US,Massachusetts,MA,Middlesex County,Malden,02148
United States,US,Massachusetts,MA,Middlesex County,Marlborough,01752
United States,US,Massachusetts,MA,Middlesex County,Maynard,01754
United States,US,Massachusetts,MA,Middlesex County,Medford,02155
United States,US,Massachusetts,MA,Middlesex County,Melrose,02176
United States,US,Massachusetts,MA,Middlesex County,Natick,01760
United States,US,Massachusetts,MA,Middlesex County,Newton,02458
United States,US,Massachusetts,MA,Middlesex County,Newton Center,02459
United States,US,Massachusetts,MA,Middlesex County,Newton Highlands,02461
United States,US,Massachusetts,MA,Middlesex County,Newton Lower Falls,02462
United States,US,Massachusetts,MA,Middlesex County,Newton Upper Falls,02464
United States,US,Massachusetts,MA,Middlesex County,Newtonville,02460
United States,US,Massachusetts,MA,Middlesex County,North Billerica,01862
United States,US,Massachusetts,MA,Middlesex County,North Chelmsford,01863
United States,US,Massachusetts,MA,Middlesex County,North Reading,01864
United States,US,Massachusetts,MA,Middlesex County,Pepperell,01463
United States,US,Massachusetts,MA,Middlesex County,Reading,01867
United States,US,Massachusetts,MA,Middlesex County,Sherborn,01770
United States,US,Massachusetts,MA,Middlesex County,Shirley,01464
United States,US,Massachusetts,MA,Middlesex County,Somerville,02143
United States,US,Massachusetts,MA,Middlesex County,Somerville,02144
United States,US,Massachusetts,MA,Middlesex County,Somerville,02145
United States,US,Massachusetts,MA,Middlesex County,Stoneham,02180
United States,US,Massachusetts,MA,Middlesex County,Stow,01775
United States,US,Massachusetts,MA,Middlesex County,Sudbury,01776
United States,US,Massachusetts,MA,Middlesex County,Tewksbury,01876
United States,US,Massachusetts,MA,Middlesex County,Townsend,01469
United States,US,Massachusetts,MA,Middlesex County,Tyngsboro,01879
United States,US,Massachusetts,MA,Middlesex County,Village Of Nagog Woods,01718
United States,US,Massachusetts,MA,Middlesex County,Waban,02468
United States,US,Massachusetts,MA,Middlesex County,Wakefield,01880
United States,US,Massachusetts,MA,Middlesex County,Waltham,02451
United States,US,Massachusetts,MA,Middlesex County,Waltham,02452
United States,US,Massachusetts,MA,Middlesex County,Waltham,02453
United States,US,Massachusetts,MA,Middlesex County,Watertown,02472
United States,US,Massachusetts,MA,Middlesex County,Wayland,01778
United States,US,Massachusetts,MA,Middlesex County,West Newton,02465
United States,US,Massachusetts,MA,Middlesex County,West Townsend,01474
United States,US,Massachusetts,MA,Middlesex County,Westford,01886
United States,US,Massachusetts,MA,Middlesex County,Weston,02493
United States,US,Massachusetts,MA,Middlesex County,Wilmington,01887
United States,US,Massachusetts,MA,Middlesex County,Winchester,01890
United States,US,Massachusetts,MA,Middlesex County,Woburn,01801
United States,US,Massachusetts,MA,Nantucket County,Nantucket,02554
United States,US,Massachusetts,MA,Norfolk County,Avon,02322
United States,US,Massachusetts,MA,Norfolk County,Bellingham,02019
United States,US,Massachusetts,MA,Norfolk County,Braintree,02184
United States,US,Massachusetts,MA,Norfolk County,Brookline,02445
United States,US,Massachusetts,MA,Norfolk County,Brookline,02446
United States,US,Massachusetts,MA,Norfolk County,Canton,02021
United States,US,Massachusetts,MA,Norfolk County,Chestnut Hill,02467
United States,US,Massachusetts,MA,Norfolk County,Cohasset,02025
United States,US,Massachusetts,MA,Norfolk County,Dedham,02026
United States,US,Massachusetts,MA,Norfolk County,Dover,02030
United States,US,Massachusetts,MA,Norfolk County,East Walpole,02032
United States,US,Massachusetts,MA,Norfolk County,East Weymouth,02189
United States,US,Massachusetts,MA,Norfolk County,Foxboro,02035
United States,US,Massachusetts,MA,Norfolk County,Franklin,02038
United States,US,Massachusetts,MA,Norfolk County,Holbrook,02343
United States,US,Massachusetts,MA,Norfolk County,Medfield,02052
United States,US,Massachusetts,MA,Norfolk County,Medway,02053
United States,US,Massachusetts,MA,Norfolk County,Millis,02054
United States,US,Massachusetts,MA,Norfolk County,Milton,02186
United States,US,Massachusetts,MA,Norfolk County,Needham,02492
United States,US,Massachusetts,MA,Norfolk County,Needham Heights,02494
United States,US,Massachusetts,MA,Norfolk County,Norfolk,02056
United States,US,Massachusetts,MA,Norfolk County,North Weymouth,02191
United States,US,Massachusetts,MA,Norfolk County,Norwood,02062
United States,US,Massachusetts,MA,Norfolk County,Plainville,02762
United States,US,Massachusetts,MA,Norfolk County,Quincy,02169
United States,US,Massachusetts,MA,Norfolk County,Quincy,02170
United States,US,Massachusetts,MA,Norfolk County,Quincy,02171
United States,US,Massachusetts,MA,Norfolk County,Randolph,02368
United States,US,Massachusetts,MA,Norfolk County,Sharon,02067
United States,US,Massachusetts,MA,Norfolk County,South Walpole,02071
United States,US,Massachusetts,MA,Norfolk County,South Weymouth,02190
United States,US,Massachusetts,MA,Norfolk County,Stoughton,02072
United States,US,Massachusetts,MA,Norfolk County,Walpole,02081
United States,US,Massachusetts,MA,Norfolk County,Wellesley,02482
United States,US,Massachusetts,MA,Norfolk County,Wellesley Hills,02481
United States,US,Massachusetts,MA,Norfolk County,Westwood,02090
United States,US,Massachusetts,MA,Norfolk County,Weymouth,02188
United States,US,Massachusetts,MA,Norfolk County,Wrentham,02093
United States,US,Massachusetts,MA,Plymouth County,Abington,02351
United States,US,Massachusetts,MA,Plymouth County,Bridgewater,02324
United States,US,Massachusetts,MA,Plymouth County,Brockton,02301
United States,US,Massachusetts,MA,Plymouth County,Brockton,02302
United States,US,Massachusetts,MA,Plymouth County,Carver,02330
United States,US,Massachusetts,MA,Plymouth County,Duxbury,02332
United States,US,Massachusetts,MA,Plymouth County,East Bridgewater,02333
United States,US,Massachusetts,MA,Plymouth County,East Wareham,02538
United States,US,Massachusetts,MA,Plymouth County,Halifax,02338
United States,US,Massachusetts,MA,Plymouth County,Hanover,02339
United States,US,Massachusetts,MA,Plymouth County,Hanson,02341
United States,US,Massachusetts,MA,Plymouth County,Hingham,02043
United States,US,Massachusetts,MA,Plymouth County,Hull,02045
United States,US,Massachusetts,MA,Plymouth County,Kingston,02364
United States,US,Massachusetts,MA,Plymouth County,Lakeville,02347
United States,US,Massachusetts,MA,Plymouth County,Marion,02738
United States,US,Massachusetts,MA,Plymouth County,Marshfield,02050
United States,US,Massachusetts,MA,Plymouth County,Mattapoisett,02739
United States,US,Massachusetts,MA,Plymouth County,Middleboro,02346
United States,US,Massachusetts,MA,Plymouth County,Norwell,02061
United States,US,Massachusetts,MA,Plymouth County,Pembroke,02359
United States,US,Massachusetts,MA,Plymouth County,Plymouth,02360
United States,US,Massachusetts,MA,Plymouth County,Plympton,02367
United States,US,Massachusetts,MA,Plymouth County,Rochester,02770
United States,US,Massachusetts,MA,Plymouth County,Rockland,02370
United States,US,Massachusetts,MA,Plymouth County,Scituate,02066
United States,US,Massachusetts,MA,Plymouth County,Wareham,02571
United States,US,Massachusetts,MA,Plymouth County,West Bridgewater,02379
United States,US,Massachusetts,MA,Plymouth County,West Wareham,02576
United States,US,Massachusetts,MA,Plymouth County,Whitman,02382
United States,US,Massachusetts,MA,Suffolk County,Allston,02134
United States,US,Massachusetts,MA,Suffolk County,Boston,02108
United States,US,Massachusetts,MA,Suffolk County,Boston,02109
United States,US,Massachusetts,MA,Suffolk County,Boston,02110
United States,US,Massachusetts,MA,Suffolk County,Boston,02111
United States,US,Massachusetts,MA,Suffolk County,Boston,02113
United States,US,Massachusetts,MA,Suffolk County,Boston,02114
United States,US,Massachusetts,MA,Suffolk County,Boston,02115
United States,US,Massachusetts,MA,Suffolk County,Boston,02116
United States,US,Massachusetts,MA,Suffolk County,Boston,02118
United States,US,Massachusetts,MA,Suffolk County,Boston,02127
United States,US,Massachusetts,MA,Suffolk County,Boston,02128
United States,US,Massachusetts,MA,Suffolk County,Boston,02133
United States,US,Massachusetts,MA,Suffolk County,Boston,02163
United States,US,Massachusetts,MA,Suffolk County,Boston,02199
United States,US,Massachusetts,MA,Suffolk County,Boston,02203
United States,US,Massachusetts,MA,Suffolk County,Boston,02210
United States,US,Massachusetts,MA,Suffolk County,Boston,02215
United States,US,Massachusetts,MA,Suffolk County,Boston,02222
United States,US,Massachusetts,MA,Suffolk County,Boston,02283
United States,US,Massachusetts,MA,Suffolk County,Boston,02284
United States,US,Massachusetts,MA,Suffolk County,Brighton,02135
United States,US,Massachusetts,MA,Suffolk County,Charlestown,02129
United States,US,Massachusetts,MA,Suffolk County,Chelsea,02150
United States,US,Massachusetts,MA,Suffolk County,Dorchester,02121
United States,US,Massachusetts,MA,Suffolk County,Dorchester,02122
United States,US,Massachusetts,MA,Suffolk County,Dorchester,02125
United States,US,Massachusetts,MA,Suffolk County,Dorchester Center,02124
United States,US,Massachusetts,MA,Suffolk County,Hyde Park,02136
United States,US,Massachusetts,MA,Suffolk County,Jamaica Plain,02130
United States,US,Massachusetts,MA,Suffolk County,Mattapan,02126
United States,US,Massachusetts,MA,Suffolk County,Revere,02151
United States,US,Massachusetts,MA,Suffolk County,Roslindale,02131
United States,US,Massachusetts,MA,Suffolk County,Roxbury,02119
United States,US,Massachusetts,MA,Suffolk County,Roxbury Crossing,02120
United States,US,Massachusetts,MA,Suffolk County,West Roxbury,02132
United States,US,Massachusetts,MA,Suffolk County,Winthrop,02152
United States,US,Massachusetts,MA,Worcester County,Ashburnham,01430
United States,US,Massachusetts,MA,Worcester County,Athol,01331
United States,US,Massachusetts,MA,Worcester County,Auburn,01501
United States,US,Massachusetts,MA,Worcester County,Baldwinville,01436
United States,US,Massachusetts,MA,Worcester County,Barre,01005
United States,US,Massachusetts,MA,Worcester County,Berlin,01503
United States,US,Massachusetts,MA,Worcester County,Blackstone,01504
United States,US,Massachusetts,MA,Worcester County,Bolton,01740
United States,US,Massachusetts,MA,Worcester County,Boylston,01505
United States,US,Massachusetts,MA,Worcester County,Brookfield,01506
United States,US,Massachusetts,MA,Worcester County,Charlton,01507
United States,US,Massachusetts,MA,Worcester County,Cherry Valley,01611
United States,US,Massachusetts,MA,Worcester County,Clinton,01510
United States,US,Massachusetts,MA,Worcester County,Devens,01434
United States,US,Massachusetts,MA,Worcester County,Douglas,01516
United States,US,Massachusetts,MA,Worcester County,Dudley,01571
United States,US,Massachusetts,MA,Worcester County,East Brookfield,01515
United States,US,Massachusetts,MA,Worcester County,Fayville,01745
United States,US,Massachusetts,MA,Worcester County,Fiskdale,01518
United States,US,Massachusetts,MA,Worcester County,Fitchburg,01420
United States,US,Massachusetts,MA,Worcester County,Gardner,01440
United States,US,Massachusetts,MA,Worcester County,Gilbertville,01031
United States,US,Massachusetts,MA,Worcester County,Grafton,01519
United States,US,Massachusetts,MA,Worcester County,Harvard,01451
United States,US,Massachusetts,MA,Worcester County,Holden,01520
United States,US,Massachusetts,MA,Worcester County,Hopedale,01747
United States,US,Massachusetts,MA,Worcester County,Hubbardston,01452
United States,US,Massachusetts,MA,Worcester County,Jefferson,01522
United States,US,Massachusetts,MA,Worcester County,Lancaster,01523
United States,US,Massachusetts,MA,Worcester County,Leicester,01524
United States,US,Massachusetts,MA,Worcester County,Leominster,01453
United States,US,Massachusetts,MA,Worcester County,Lunenburg,01462
United States,US,Massachusetts,MA,Worcester County,Mendon,01756
United States,US,Massachusetts,MA,Worcester County,Milford,01757
United States,US,Massachusetts,MA,Worcester County,Millbury,01527
United States,US,Massachusetts,MA,Worcester County,Millville,01529
United States,US,Massachusetts,MA,Worcester County,New Braintree,01531
United States,US,Massachusetts,MA,Worcester County,North Brookfield,01535
United States,US,Massachusetts,MA,Worcester County,North Grafton,01536
United States,US,Massachusetts,MA,Worcester County,North Oxford,01537
United States,US,Massachusetts,MA,Worcester County,Northborough,01532
United States,US,Massachusetts,MA,Worcester County,Northbridge,01534
United States,US,Massachusetts,MA,Worcester County,Oakham,01068
United States,US,Massachusetts,MA,Worcester County,Oxford,01540
United States,US,Massachusetts,MA,Worcester County,Paxton,01612
United States,US,Massachusetts,MA,Worcester County,Petersham,01366
United States,US,Massachusetts,MA,Worcester County,Princeton,01541
United States,US,Massachusetts,MA,Worcester County,Rochdale,01542
United States,US,Massachusetts,MA,Worcester County,Royalston,01368
United States,US,Massachusetts,MA,Worcester County,Rutland,01543
United States,US,Massachusetts,MA,Worcester County,Shrewsbury,01545
United States,US,Massachusetts,MA,Worcester County,South Grafton,01560
United States,US,Massachusetts,MA,Worcester County,Southborough,01772
United States,US,Massachusetts,MA,Worcester County,Southbridge,01550
United States,US,Massachusetts,MA,Worcester County,Spencer,01562
United States,US,Massachusetts,MA,Worcester County,Sterling,01564
United States,US,Massachusetts,MA,Worcester County,Sturbridge,01566
United States,US,Massachusetts,MA,Worcester County,Sutton,01590
United States,US,Massachusetts,MA,Worcester County,Templeton,01468
United States,US,Massachusetts,MA,Worcester County,Upton,01568
United States,US,Massachusetts,MA,Worcester County,Uxbridge,01569
United States,US,Massachusetts,MA,Worcester County,Webster,01570
United States,US,Massachusetts,MA,Worcester County,West Boylston,01583
United States,US,Massachusetts,MA,Worcester County,West Brookfield,01585
United States,US,Massachusetts,MA,Worcester County,Westborough,01581
United States,US,Massachusetts,MA,Worcester County,Westminster,01473
United States,US,Massachusetts,MA,Worcester County,Whitinsville,01588
United States,US,Massachusetts,MA,Worcester County,Winchendon,01475
United States,US,Massachusetts,MA,Worcester County,Worcester,01602
United States,US,Massachusetts,MA,Worcester County,Worcester,01603
United States,US,Massachusetts,MA,Worcester County,Worcester,01604
United States,US,Massachusetts,MA,Worcester County,Worcester,01605
United States,US,Massachusetts,MA,Worcester County,Worcester,01606
United States,US,Massachusetts,MA,Worcester County,Worcester,01607
United States,US,Massachusetts,MA,Worcester County,Worcester,01608
United States,US,Massachusetts,MA,Worcester County,Worcester,01609
United States,US,Massachusetts,MA,Worcester County,Worcester,01610
United States,US,Massachusetts,MA,Worcester County,Worcester,01655
