Country,State,City,Zip Code,Airport Name,FAA Code,Category
United States,New York,Akron,,Akron Airport,9G3,USA Regional/FBO
United States,New York,Albion,,Pine Hill Airport,9G6,USA Regional/FBO
United States,New York,Arcade,,Arcade Tri-County Airport,D23,USA Regional/FBO
United States,New York,Argyle,,Argyle Airport,1C3,USA Regional/FBO
United States,New York,Batavia,,Genesee County Airport,KGVQ,USA Regional/FBO
United States,New York,Bayport,,Bayport Aerodrome,23N,USA Regional/FBO
United States,New York,Brockport,,Ledgedale Airpark,7G0,USA Regional/FBO
United States,New York,Buffalo,,Buffalo Airfield,9G0,USA Regional/FBO
United States,New York,Buffalo,,Clarence Aerodrome,D51,USA Regional/FBO
United States,New York,Cambridge,,Chapin Field Airport,1B8,USA Regional/FBO
United States,New York,Canandaigua,,Canandaigua Airport,D38,USA Regional/FBO
United States,New York,Clay,,Airlane Enterprises Airport,1H1,USA Regional/FBO
United States,New York,Cooperstown,,Cooperstown-Westville Airport,K23,USA Regional/FBO
United States,New York,Corning,,Corning-Painted Post Airport,7N1,USA Regional/FBO
United States,New York,Cortland,,Cortland County Airport-Chase Field,N03,USA Regional/FBO
United States,New York,Dansville,,Dansville Municipal Airport,KDSV,USA Regional/FBO
United States,New York,Degrasse,13684,Moores Airport,1.00E+08,USA Regional/FBO
United States,New York,Dolgeville,,Dolgeville Airport,1F6,USA Regional/FBO
United States,New York,Duanesburg,,Duanesburg Airport,4B1,USA Regional/FBO
United States,New York,Dunkirk,,Chautauqua County/Dunkirk Airport,KDKK,USA Regional/FBO
United States,New York,East Hampton,,East Hampton Airport,KHTO,USA Regional/FBO
United States,New York,East Moriches,,Spadaro Airport,1N2,USA Regional/FBO
United States,New York,East Moriches,,Lufker Airport,49N,USA Regional/FBO
United States,New York,Edinburg,,Plateau Sky Ranch Airport,1F2,USA Regional/FBO
United States,New York,Ellenville,,Joseph Y Resnick Airport,N89,USA Regional/FBO
United States,New York,Endicott,,Tri-Cities Airport,KCZG,USA Regional/FBO
United States,New York,Farmingdale,,Republic Airport,KFRG,USA Regional/FBO
United States,New York,Fishers Island,,Elizabeth Field Airport,0B8,USA Regional/FBO
United States,New York,Fort Ann,,Harris Airport,83K,USA Regional/FBO
United States,New York,Freehold,,Freehold Airport,1I5,USA Regional/FBO
United States,New York,Fulton,,Oswego County Airport,KFZY,USA Regional/FBO
United States,New York,Gallupville,,Blue Heron Airport,N25,USA Regional/FBO
United States,New York,Gansevoort,,Heber Airpark,K30,USA Regional/FBO
United States,New York,Gasport,,Royalton Airport,9G5,USA Regional/FBO
United States,New York,Geneseo,,Geneseo Airport,D52,USA Regional/FBO
United States,New York,Ghent,,Kline Kill Airport,NY1,USA Regional/FBO
United States,New York,Glens Falls,,Floyd Bennett Memorial Airport,KGFL,USA Regional/FBO
United States,New York,Gorham,,Midlakes Airport,92G,USA Regional/FBO
United States,New York,Gowanda,,Gowanda Airport,D59,USA Regional/FBO
United States,New York,Great Valley,,Great Valley Airport,N56,USA Regional/FBO
United States,New York,Greene,,Greene Airport,4N7,USA Regional/FBO
United States,New York,Greenville,,Greenville-Rainbow Airport,1H4,USA Regional/FBO
United States,New York,Hamburg,,Hamburg Inc Airport,4G2,USA Regional/FBO
United States,New York,Hamilton,,Hamilton Municipal Airport,KVGC,USA Regional/FBO
United States,New York,Hornell,,Hornell Municipal Airport,KHTF,USA Regional/FBO
United States,New York,Hudson,,Columbia County Airport,1B1,USA Regional/FBO
United States,New York,Jamestown,,Chautauqua County/Jamestown Airport,KJHW,USA Regional/FBO
United States,New York,Johnstown,,Fulton County Airport,NY0,USA Regional/FBO
United States,New York,Keene,,Marcy Field Airport,1I1,USA Regional/FBO
United States,New York,Kingston,,Kingston-Ulster Airport,20N,USA Regional/FBO
United States,New York,Lake Placid,,Lake Placid Airport,KLKP,USA Regional/FBO
United States,New York,Lancaster,,Buffalo-Lancaster Regional Airport,KBQR,USA Regional/FBO
United States,New York,Le Roy,,Le Roy Airport,5G0,USA Regional/FBO
United States,New York,Livingston,,Green Acres Airport,1A1,USA Regional/FBO
United States,New York,Lockport,,North Buffalo Suburban Airport,0G0,USA Regional/FBO
United States,New York,Malone,,Malone-Dufort Airport,KMAL,USA Regional/FBO
United States,New York,Massena,,Massena International Airport-Richards Field,KMSS,USA Regional/FBO
United States,New York,Mattituck,,Mattituck Airport,21N,USA Regional/FBO
United States,New York,Mayville,,Dart Airport,D79,USA Regional/FBO
United States,New York,Mechanicville,,Burrello-Mechanicville Airport,K27,USA Regional/FBO
United States,New York,Middlesex,,Middlesex Valley Airport,4N2,USA Regional/FBO
United States,New York,Middletown,,Randall Airport,06N,USA Regional/FBO
United States,New York,Millbrook,,Sky Acres Airport,44N,USA Regional/FBO
United States,New York,Montauk,,Montauk Airport,KMTP,USA Regional/FBO
United States,New York,Montgomery,,Orange County Airport,KMGJ,USA Regional/FBO
United States,New York,Monticello,,Sullivan County International Airport,KMSV,USA Regional/FBO
United States,New York,Moravia,,Owasco Airport,Y92,USA Regional/FBO
United States,New York,Newfane,,Hollands International Field Airport,85N,USA Regional/FBO
United States,New York,Norwich,,LT Warren Eaton Airport,KOIC,USA Regional/FBO
United States,New York,Ogdensburg,,Ogdensburg International Airport,KOGS,USA Regional/FBO
United States,New York,Olean,,Cattaraugus County-Olean Airport,KOLE,USA Regional/FBO
United States,New York,Olean,,Giermek Executive Airport,8G3,USA Regional/FBO
United States,New York,Oneonta,,Oneonta Municipal Airport,N66,USA Regional/FBO
United States,New York,Ovid,,Ovid Airport,D82,USA Regional/FBO
United States,New York,Penn Yan,,Penn Yan Airport,KPEO,USA Regional/FBO
United States,New York,Perry,,Perry-Warsaw Airport,01G,USA Regional/FBO
United States,New York,Piseco,,Piseco Airport,K09,USA Regional/FBO
United States,New York,Potsdam,,Potsdam Municipal Airport (Damon Field),KPTD,USA Regional/FBO
United States,New York,Poughkeepsie,,Dutchess County Airport,KPOU,USA Regional/FBO
United States,New York,Red Hook,,Sky Park Airport,46N,USA Regional/FBO
United States,New York,Rome,,Griffiss International Airport,KRME,USA Regional/FBO
United States,New York,Rome,,Becks Grove Airport,K16,USA Regional/FBO
United States,New York,Round Lake,,Round Lake Airport and Seaplane Base,W57,USA Regional/FBO
United States,New York,Saranac Lake,,Adirondack Regional Airport,KSLK,USA Regional/FBO
United States,New York,Saratoga Springs,,Saratoga County Airport,5B2,USA Regional/FBO
United States,New York,Schenectady,,Schenectady County Airport,KSCH,USA Regional/FBO
United States,New York,Schroon Lake,,Schroon Lake Airport,4B7,USA Regional/FBO
United States,New York,Schuylerville,,Garnseys Airport,B04,USA Regional/FBO
United States,New York,Seneca Falls,,Finger Lakes Regional Airport,0G7,USA Regional/FBO
United States,New York,Sharon Springs,,Sharon Airport,K31,USA Regional/FBO
United States,New York,Sherman,,Pratt's Eastern Divide Airport,D88,USA Regional/FBO
United States,New York,Shirley,,Brookhaven Airport,KHWV,USA Regional/FBO
United States,New York,Sidney,,Sidney Municipal Airport,N23,USA Regional/FBO
United States,New York,Skaneateles,,Skaneateles Aero Drome,6B9,USA Regional/FBO
United States,New York,South Bethlehem,,South Albany Airport,4B0,USA Regional/FBO
United States,New York,Spencerport,,Spencerport Airpark,D91,USA Regional/FBO
United States,New York,Staatsburg,,Airhaven Airport,09N,USA Regional/FBO
United States,New York,Stormville,,Stormville Airport,N69,USA Regional/FBO
United States,New York,Syracuse,,Syracuse Suburban Airport,6NK,USA Regional/FBO
United States,New York,Ticonderoga,,Ticonderoga Municipal Airport,4B6,USA Regional/FBO
United States,New York,Troy,,Rensselaer County Airport,5B7,USA Regional/FBO
United States,New York,Utica/Frankfort,,Frankfort-Highland Airport,6B4,USA Regional/FBO
United States,New York,Wallkill,,Kobelt Airport,N45,USA Regional/FBO
United States,New York,Warsaw,,R & R Aero Airport,5R5,USA Regional/FBO
United States,New York,Warwick,,Warwick Municipal Airport,N72,USA Regional/FBO
United States,New York,Waterloo,,Airtrek Airport,D93,USA Regional/FBO
United States,New York,Weedsport,,Whitfords Airport,B16,USA Regional/FBO
United States,New York,Wellsville,,"Wellsville Municipal Airport, Tarantine Field",KELZ,USA Regional/FBO
United States,New York,Westhampton Beach,,Francis S Gabreski Airport,KFOK,USA Regional/FBO
United States,New York,Williamson/Sodus,,Williamson-Sodus Airport,KSDC,USA Regional/FBO
United States,New York,Wurtsboro,,Wurtsboro-Sullivan County Airport,N82,USA Regional/FBO
